<?xml version="1.0" encoding="UTF-8" standalone="no"?>
<!DOCTYPE svg  PUBLIC '-//W3C//DTD SVG 1.1//EN'  'http://www.w3.org/Graphics/SVG/1.1/DTD/svg11.dtd'>
<svg version="1.1" xmlns="http://www.w3.org/2000/svg">
<defs>
<font id="DroidSans-Bold" horiz-adv-x="1128">
<font-face x-height="1118" font-weight="700" bbox="-393 -492 1898 1907" font-family="Droid Sans" cap-height="1462" descent="-410" panose-1="2 11 8 6 3 8 4 2 2 4" unicode-range="U+0020-2044" ascent="1638" units-per-em="2048" underline-thickness="102" underline-position="-307"/>
<missing-glyph/>
<glyph glyph-name="space" horiz-adv-x="532" unicode=" "/>
<glyph glyph-name="exclam" horiz-adv-x="586" d="M416 485h-244l-51 977h346zM117 143q0 47 13.5 79.5t37.5 52.5t56 29t69 9q35 0 66.5 -9t55.5 -29t38 -52.5t14 -79.5q0 -45 -14 -77t-38 -53t-55.5 -30.5t-66.5 -9.5q-37 0 -69 9.5t-56 30.5t-37.5 53t-13.5 77z" unicode="!"/>
<glyph glyph-name="quotedbl" horiz-adv-x="967" d="M412 1462l-41 -528h-197l-41 528h279zM834 1462l-41 -528h-197l-41 528h279z" unicode='&quot;'/>
<glyph glyph-name="numbersign" horiz-adv-x="1323" d="M999 844l-47 -232h258v-206h-297l-77 -406h-220l78 406h-194l-76 -406h-215l74 406h-238v206h277l47 232h-252v209h289l77 407h219l-77 -407h198l78 407h215l-78 -407h240v-209h-279zM539 612h196l47 232h-196z" unicode="#"/>
<glyph glyph-name="dollar" d="M1061 457q0 -75 -26.5 -139t-79 -112t-130.5 -79t-180 -41v-205h-137v201q-66 2 -122 8t-105 17t-93.5 26.5t-87.5 34.5v264q42 -21 91.5 -40t102.5 -34.5t107.5 -26.5t106.5 -14v318q-8 3 -17 7l-16 6t-14 5q-91 35 -159 73t-113.5 85t-68 104t-22.5 129 q0 75 28.5 136.5t81.5 107t129 74t171 37.5v157h137v-151q87 -5 178 -25t191 -63l-101 -234q-65 26 -135.5 46.5t-132.5 25.5v-293l39 -14q95 -35 166 -72t118 -83t70 -103t23 -133zM760 451q0 24 -6.5 42t-20.5 33t-35.5 27.5t-52.5 26.5v-252q59 9 87 39t28 84zM399 1051 q0 -47 26 -78.5t83 -52.5v233q-54 -6 -81.5 -30t-27.5 -72z" unicode="$"/>
<glyph glyph-name="percent" horiz-adv-x="1804" d="M315 1024q0 -127 22.5 -189.5t72.5 -62.5q49 0 72.5 62t23.5 190q0 250 -96 250q-50 0 -72.5 -61.5t-22.5 -188.5zM758 1026q0 -108 -20.5 -194t-63.5 -145t-109 -90.5t-157 -31.5q-85 0 -149.5 31.5t-108 90.5t-65.5 145t-22 194t20 193t62.5 143.5t107.5 89.5t155 31 q86 0 151.5 -31t109.5 -89.5t66.5 -143.5t22.5 -193zM1425 1462l-811 -1462h-239l811 1462h239zM1298 440q0 -127 22.5 -189.5t72.5 -62.5q49 0 72.5 62t23.5 190q0 250 -96 250q-50 0 -72.5 -61.5t-22.5 -188.5zM1741 442q0 -108 -20.5 -193.5t-63.5 -144.5t-109 -90.5 t-157 -31.5q-85 0 -149 31.5t-107.5 90.5t-65.5 144.5t-22 193.5t20 193t62 143.5t107 89.5t155 31q86 0 151.5 -31t109.5 -89.5t66.5 -143.5t22.5 -193z" unicode="%"/>
<glyph glyph-name="ampersand" horiz-adv-x="1479" d="M1475 0h-377l-97 100q-80 -55 -176.5 -87.5t-212.5 -32.5q-120 0 -217.5 30t-167 84.5t-107.5 131t-38 169.5q0 77 18.5 137.5t52.5 109.5t82.5 89t108.5 76q-38 46 -64.5 88.5t-42.5 84t-23 83t-7 86.5q0 78 30.5 139.5t85 105t130 66.5t165.5 23q86 0 158.5 -21 t125 -61.5t82.5 -100t30 -135.5q0 -69 -22.5 -126.5t-60.5 -106.5t-89.5 -90t-110.5 -76l260 -268q35 66 61.5 139t45.5 147h317q-15 -57 -35.5 -120t-47.5 -126.5t-62 -126.5t-78 -120zM403 424q0 -44 16 -79t44.5 -59t67 -37t83.5 -13q60 0 111 15.5t94 43.5l-309 330 q-51 -42 -79 -90t-28 -111zM731 1124q0 31 -10 52.5t-26.5 35.5t-37 20.5t-41.5 6.5q-22 0 -44.5 -6t-41 -19.5t-30 -36t-11.5 -55.5q0 -52 23 -98t63 -92q77 44 116.5 88t39.5 104z" unicode="&amp;"/>
<glyph glyph-name="quotesingle" horiz-adv-x="545" d="M412 1462l-41 -528h-197l-41 528h279z" unicode="&apos;"/>
<glyph glyph-name="parenleft" horiz-adv-x="694" d="M82 561q0 125 18 246.5t55 236t93.5 220t134.5 198.5h250q-141 -193 -213 -424t-72 -475q0 -119 18 -237t54 -231t89 -219t122 -200h-248q-78 90 -134.5 193t-93.5 215.5t-55 232.5t-18 244z" unicode="("/>
<glyph glyph-name="parenright" horiz-adv-x="694" d="M612 561q0 -124 -18 -244t-55 -232.5t-93.5 -215.5t-134.5 -193h-248q69 94 122 200t89 219t54 231t18 237q0 244 -72 475t-213 424h250q78 -93 134.5 -198.5t93.5 -220t55 -236t18 -246.5z" unicode=")"/>
<glyph glyph-name="asterisk" horiz-adv-x="1116" d="M688 1556l-41 -368l373 104l33 -252l-340 -24l223 -297l-227 -121l-156 313l-137 -311l-236 119l221 297l-338 26l39 250l365 -104l-41 368h262z" unicode="*"/>
<glyph glyph-name="plus" d="M455 612h-367v219h367v369h219v-369h366v-219h-366v-364h-219v364z" unicode="+"/>
<glyph glyph-name="comma" horiz-adv-x="594" d="M459 215q-14 -54 -33.5 -115t-43 -123t-49 -123.5t-50.5 -117.5h-220q15 61 29.5 127t28 131.5t24.5 128t19 115.5h280z" unicode=","/>
<glyph glyph-name="hyphen" horiz-adv-x="659" d="M61 424v250h537v-250h-537z" unicode="-"/>
<glyph glyph-name="period" horiz-adv-x="584" d="M117 143q0 47 13.5 79.5t37.5 52.5t56 29t69 9q35 0 66.5 -9t55.5 -29t38 -52.5t14 -79.5q0 -45 -14 -77t-38 -53t-55.5 -30.5t-66.5 -9.5q-37 0 -69 9.5t-56 30.5t-37.5 53t-13.5 77z" unicode="."/>
<glyph glyph-name="slash" horiz-adv-x="846" d="M836 1462l-545 -1462h-277l545 1462h277z" unicode="/"/>
<glyph glyph-name="zero" d="M1065 731q0 -177 -27.5 -316t-88 -236t-156 -148t-230.5 -51q-127 0 -221 51t-156 148t-92.5 236t-30.5 316t27.5 317t87.5 237t155 148.5t230 51.5q126 0 220 -51t157 -148t94 -237t31 -318zM371 731q0 -250 43 -376t149 -126q104 0 149.5 125t45.5 377 q0 251 -45.5 377.5t-149.5 126.5q-53 0 -89.5 -32t-59.5 -95t-33 -157.5t-10 -219.5z" unicode="0"/>
<glyph glyph-name="one" d="M817 0h-309v846q0 26 0.5 62.5t2 76t3 79.5t2.5 73q-5 -6 -17 -18t-27 -26.5t-31 -29.5t-31 -27l-168 -135l-150 186l471 375h254v-1462z" unicode="1"/>
<glyph glyph-name="two" d="M1063 0h-981v215l344 371q65 70 118 129t91 115t59 114t21 125q0 74 -44.5 115t-119.5 41q-79 0 -152 -39t-153 -111l-168 199q45 41 94 78.5t108 66.5t130 46.5t159 17.5q105 0 188.5 -29t142.5 -82.5t90.5 -129.5t31.5 -171q0 -86 -30 -164.5t-82 -154t-120.5 -150 t-146.5 -151.5l-176 -177v-14h596v-260z" unicode="2"/>
<glyph glyph-name="three" d="M1006 1135q0 -76 -24.5 -136.5t-67 -106t-100 -76t-124.5 -46.5v-6q177 -22 268 -107.5t91 -230.5q0 -96 -34.5 -177.5t-106 -141.5t-180 -93.5t-255.5 -33.5q-118 0 -222 19.5t-194 59.5v263q45 -24 95 -42t100 -30.5t98.5 -18.5t91.5 -6q86 0 143 16t91 45t48.5 69.5 t14.5 88.5q0 45 -18.5 81.5t-60 62t-108.5 39.5t-165 14h-104v217h102q92 0 153 16.5t97.5 45t51.5 66.5t15 81q0 78 -48.5 122t-153.5 44q-48 0 -89.5 -9.5t-77 -24t-65 -32t-53.5 -34.5l-156 206q42 31 91.5 57t107.5 45.5t125 30.5t143 11q108 0 196.5 -23.5t151.5 -68 t97.5 -109t34.5 -147.5z" unicode="3"/>
<glyph glyph-name="four" d="M1085 303h-176v-303h-301v303h-604v215l621 944h284v-919h176v-240zM608 543v248q0 13 0.5 37.5t1.5 55.5t2.5 64t3 63t3 52.5t2.5 32.5h-9q-18 -42 -40.5 -89t-51.5 -94l-244 -370h332z" unicode="4"/>
<glyph glyph-name="five" d="M598 934q94 0 175 -29t141 -85t94 -139.5t34 -191.5q0 -119 -37 -213.5t-109 -160t-178.5 -100.5t-244.5 -35q-55 0 -109 5t-103.5 14.5t-94 24.5t-80.5 35v267q35 -20 81 -37.5t95.5 -30t99.5 -20t95 -7.5q134 0 204 55.5t70 176.5q0 108 -68.5 164.5t-211.5 56.5 q-26 0 -55.5 -3t-58 -8t-54.5 -10.5t-45 -11.5l-123 66l55 745h772v-262h-504l-24 -287q32 7 74.5 14t109.5 7z" unicode="5"/>
<glyph glyph-name="six" d="M76 621q0 105 11.5 209t41 199.5t80 177.5t128 142.5t186 95t253.5 34.5q21 0 46 -1t50.5 -2.5t49.5 -4.5t43 -7v-247q-38 9 -80.5 14.5t-85.5 5.5q-135 0 -222 -33.5t-138 -93.5t-72.5 -144t-26.5 -186h12q20 36 48.5 67.5t66.5 54t85.5 35.5t106.5 13q95 0 171 -31 t128.5 -90t80.5 -145t28 -197q0 -119 -33.5 -213t-95.5 -159.5t-150 -100t-198 -34.5q-108 0 -202 38.5t-163.5 117.5t-109 199.5t-39.5 285.5zM584 227q41 0 74.5 15.5t58 47t38 79.5t13.5 114q0 107 -44.5 168.5t-135.5 61.5q-46 0 -84 -18t-65 -47t-41.5 -65t-14.5 -73 q0 -51 12.5 -101.5t38 -91t63 -65.5t87.5 -25z" unicode="6"/>
<glyph glyph-name="seven" d="M207 0l520 1200h-672v260h1008v-194l-533 -1266h-323z" unicode="7"/>
<glyph glyph-name="eight" d="M565 1481q91 0 172 -22t142 -66t97 -110t36 -155q0 -66 -20 -119.5t-55 -97t-83 -77.5t-104 -62q58 -31 113.5 -69t98.5 -85.5t69 -106.5t26 -132q0 -91 -36 -165t-101 -126t-155.5 -80t-199.5 -28q-118 0 -210 27t-155 77t-95.5 123t-32.5 164q0 75 22 135t60 108t89 85 t109 65q-49 31 -92 67.5t-74.5 81t-50 98.5t-18.5 119q0 87 36.5 152.5t98.5 110t143 66.5t170 22zM358 389q0 -40 13 -73.5t38.5 -57.5t63.5 -37.5t88 -13.5q105 0 157 49.5t52 130.5q0 42 -17.5 75.5t-45 62t-62.5 52.5t-70 46l-22 14q-44 -22 -80 -47.5t-61.5 -56 t-39.5 -66.5t-14 -78zM563 1255q-33 0 -61.5 -10t-49 -29t-32.5 -47t-12 -63q0 -42 12.5 -72.5t34 -54t50 -42t60.5 -36.5q31 16 59 35t49.5 43.5t34.5 55.5t13 71q0 35 -12 63t-33 47t-50 29t-63 10z" unicode="8"/>
<glyph glyph-name="nine" d="M1055 838q0 -105 -11.5 -209.5t-41 -199.5t-80 -177.5t-128 -142.5t-186 -94.5t-254.5 -34.5q-21 0 -46 1t-50.5 2.5t-49.5 4t-42 6.5v248q37 -10 79.5 -15.5t86.5 -5.5q135 0 222 33.5t138 94t72.5 144.5t26.5 185h-13q-20 -36 -48 -67t-66 -54t-86 -36t-107 -13 q-95 0 -171 31t-128.5 90t-80.5 145t-28 197q0 119 33.5 213t95.5 159.5t150.5 100.5t198.5 35q108 0 202 -38.5t163 -117.5t109 -200t40 -285zM547 1231q-41 0 -75 -15t-58.5 -46.5t-38 -80t-13.5 -114.5q0 -106 45 -168t136 -62q46 0 84 18t65 47t41.5 65t14.5 73 q0 51 -12.5 101.5t-38 91t-63 65.5t-87.5 25z" unicode="9"/>
<glyph glyph-name="colon" horiz-adv-x="584" d="M117 143q0 47 13.5 79.5t37.5 52.5t56 29t69 9q35 0 66.5 -9t55.5 -29t38 -52.5t14 -79.5q0 -45 -14 -77t-38 -53t-55.5 -30.5t-66.5 -9.5q-37 0 -69 9.5t-56 30.5t-37.5 53t-13.5 77zM117 969q0 47 13.5 79.5t37.5 52.5t56 29t69 9q35 0 66.5 -9t55.5 -29t38 -52.5 t14 -79.5q0 -45 -14 -77.5t-38 -53t-55.5 -30t-66.5 -9.5q-37 0 -69 9.5t-56 30t-37.5 53t-13.5 77.5z" unicode=":"/>
<glyph glyph-name="semicolon" horiz-adv-x="594" d="M444 238l15 -23q-14 -54 -33.5 -115t-43 -123t-49 -123.5t-50.5 -117.5h-220q15 61 29.5 127t28 131.5t24.5 128t19 115.5h280zM117 969q0 47 13.5 79.5t37.5 52.5t56 29t69 9q35 0 66.5 -9t55.5 -29t38 -52.5t14 -79.5q0 -45 -14 -77.5t-38 -53t-55.5 -30t-66.5 -9.5 q-37 0 -69 9.5t-56 30t-37.5 53t-13.5 77.5z" unicode=";"/>
<glyph glyph-name="less" d="M1040 203l-952 438v143l952 496v-240l-643 -317l643 -281v-239z" unicode="&lt;"/>
<glyph glyph-name="equal" d="M88 807v217h952v-217h-952zM88 418v219h952v-219h-952z" unicode="="/>
<glyph glyph-name="greater" d="M88 442l643 281l-643 317v240l952 -496v-143l-952 -438v239z" unicode="&gt;"/>
<glyph glyph-name="question" horiz-adv-x="940" d="M264 485v74q0 51 10.5 92.5t32 79t55.5 73t82 73.5q42 33 71 59t47 51.5t26 53.5t8 65q0 57 -38.5 94t-117.5 37q-69 0 -148.5 -29t-164.5 -71l-102 221q43 25 93.5 47.5t105 40t110.5 27.5t110 10q102 0 184 -24.5t139 -71.5t87.5 -114t30.5 -153q0 -63 -14 -112.5 t-41.5 -92t-69 -82t-96.5 -83.5q-42 -33 -68.5 -57.5t-41.5 -46.5t-20.5 -45.5t-5.5 -55.5v-60h-264zM231 143q0 47 13.5 79.5t37.5 52.5t56.5 29t69.5 9q35 0 66.5 -9t55.5 -29t38 -52.5t14 -79.5q0 -45 -14 -77t-38 -53t-55.5 -30.5t-66.5 -9.5q-37 0 -69.5 9.5 t-56.5 30.5t-37.5 53t-13.5 77z" unicode="?"/>
<glyph glyph-name="at" horiz-adv-x="1774" d="M1673 752q0 -95 -22.5 -188t-68.5 -166.5t-115.5 -119t-163.5 -45.5q-38 0 -71.5 9.5t-61.5 27t-48.5 41t-31.5 51.5h-15q-19 -25 -44 -48.5t-56 -41.5t-68.5 -28.5t-81.5 -10.5q-83 0 -147.5 28.5t-108.5 81t-67 126t-23 162.5q0 103 31 189t89 148.5t141 97t186 34.5 q45 0 93 -5t92.5 -13t83.5 -18t67 -20l-21 -419q-2 -22 -2 -43v-27q0 -42 6.5 -69t17 -42.5t24 -21.5t28.5 -6q35 0 61 27t43 73t26 107.5t9 130.5q0 128 -38 228t-105.5 169t-160.5 105t-202 36q-153 0 -269.5 -51t-195 -142.5t-119 -216.5t-40.5 -274q0 -138 35 -244.5 t104 -179t170 -110t233 -37.5q56 0 115 7t117.5 19t115 29t107.5 37v-192q-94 -42 -208.5 -66.5t-244.5 -24.5q-181 0 -323.5 51.5t-240.5 148.5t-150 237.5t-52 318.5q0 124 27 237.5t78 211t124.5 177t167.5 136t207 87t242 30.5q158 0 291 -50.5t229.5 -145t150.5 -229.5 t54 -304zM711 627q0 -112 38 -161.5t101 -49.5q42 0 72.5 19.5t50 55t30 85t13.5 110.5l12 221q-20 5 -47 8t-55 3q-59 0 -100 -25t-66.5 -66t-37 -93.5t-11.5 -106.5z" unicode="@"/>
<glyph glyph-name="A" horiz-adv-x="1331" d="M1018 0l-100 348h-504l-101 -348h-313l475 1468h379l477 -1468h-313zM846 608l-94 320q-6 18 -18 59t-25.5 90.5t-25.5 99.5t-17 85q-4 -22 -10.5 -52t-15 -63.5t-17.5 -67.5t-17 -64t-14.5 -53t-9.5 -34l-93 -320h357z" unicode="A"/>
<glyph glyph-name="B" horiz-adv-x="1315" d="M184 1462h428q138 0 242 -19.5t174 -63t105.5 -114t35.5 -173.5q0 -62 -15 -116t-44 -95t-70.5 -68.5t-95.5 -36.5v-10q55 -12 102.5 -34.5t83 -62t56 -99.5t20.5 -146q0 -100 -35 -178.5t-100.5 -133t-159 -83.5t-211.5 -29h-516v1462zM494 883h161q58 0 97 10.5 t63 31.5t34.5 52.5t10.5 73.5q0 84 -52.5 120.5t-166.5 36.5h-147v-325zM494 637v-381h182q61 0 102.5 14t67 40t36.5 63t11 82q0 41 -11 74.5t-37.5 57.5t-69.5 37t-107 13h-174z" unicode="B"/>
<glyph glyph-name="C" horiz-adv-x="1305" d="M805 1225q-89 0 -157.5 -34.5t-115 -99t-70.5 -157t-24 -207.5q0 -117 21.5 -208t66 -153.5t114 -95t165.5 -32.5q89 0 178.5 20t194.5 57v-260q-48 -20 -95 -34t-96 -23t-100.5 -13.5t-110.5 -4.5q-169 0 -293 54t-205 152t-120 236t-39 307q0 166 45 304.5t132 238.5 t215 155.5t294 55.5q109 0 218.5 -27.5t209.5 -75.5l-100 -252q-82 39 -165 68t-163 29z" unicode="C"/>
<glyph glyph-name="D" horiz-adv-x="1434" d="M1315 745q0 -185 -50.5 -324.5t-146 -233t-234 -140.5t-315.5 -47h-385v1462h428q161 0 290.5 -46t221.5 -136.5t141.5 -224.5t49.5 -310zM1001 737q0 122 -24.5 210.5t-71 146.5t-114 86t-154.5 28h-143v-952h114q196 0 294.5 120t98.5 361z" unicode="D"/>
<glyph glyph-name="E" horiz-adv-x="1147" d="M1026 0h-842v1462h842v-254h-532v-321h495v-254h-495v-377h532v-256z" unicode="E"/>
<glyph glyph-name="F" horiz-adv-x="1124" d="M489 0h-305v1462h838v-254h-533v-377h496v-253h-496v-578z" unicode="F"/>
<glyph glyph-name="G" horiz-adv-x="1483" d="M739 821h580v-758q-58 -19 -117 -34.5t-122.5 -26t-133 -16.5t-147.5 -6q-164 0 -290.5 48.5t-213 144t-131.5 236t-45 324.5q0 172 50 311t147.5 236.5t240 150t326.5 52.5q117 0 229 -25t205 -65l-103 -248q-68 34 -153.5 57t-179.5 23q-102 0 -183.5 -35.5 t-139.5 -100.5t-89 -157t-31 -205q0 -108 21.5 -197.5t67.5 -154.5t118.5 -101t173.5 -36q66 0 111.5 6t85.5 14v305h-277v258z" unicode="G"/>
<glyph glyph-name="H" horiz-adv-x="1485" d="M1300 0h-309v631h-497v-631h-310v1462h310v-573h497v573h309v-1462z" unicode="H"/>
<glyph glyph-name="I" horiz-adv-x="797" d="M731 0h-665v176l178 82v946l-178 82v176h665v-176l-178 -82v-946l178 -82v-176z" unicode="I"/>
<glyph glyph-name="J" horiz-adv-x="678" d="M-2 -430q-65 0 -114 6.5t-83 15.5v258q37 -8 77.5 -14t88.5 -6q46 0 85.5 10t69 34.5t46 65.5t16.5 103v1419h310v-1409q0 -126 -36.5 -217t-102 -150.5t-156.5 -87.5t-201 -28z" unicode="J"/>
<glyph glyph-name="K" horiz-adv-x="1298" d="M1298 0h-352l-336 608l-116 -86v-522h-310v1462h310v-704l122 207l334 497h344l-467 -659z" unicode="K"/>
<glyph glyph-name="L" horiz-adv-x="1096" d="M184 0v1462h310v-1206h532v-256h-842z" unicode="L"/>
<glyph glyph-name="M" horiz-adv-x="1870" d="M772 0l-321 1147h-9q6 -92 10 -178q2 -37 3.5 -76t3 -77t2 -73t0.5 -63v-680h-277v1462h422l316 -1118h6l336 1118h422v-1462h-289v692q0 26 0.5 59t1.5 70t2.5 75t2.5 74q4 84 7 175h-8l-346 -1145h-285z" unicode="M"/>
<glyph glyph-name="N" horiz-adv-x="1604" d="M1419 0h-393l-575 1106h-9q6 -77 10 -153q4 -65 6.5 -136.5t2.5 -128.5v-688h-277v1462h391l574 -1095h6q-3 76 -7 150q-1 32 -2.5 65.5t-2.5 67t-1.5 64.5t-0.5 56v692h278v-1462z" unicode="N"/>
<glyph glyph-name="O" horiz-adv-x="1548" d="M1430 733q0 -169 -39.5 -308t-120.5 -238t-204.5 -153t-291.5 -54t-291.5 54t-204 153t-120 238.5t-39.5 309.5t39.5 308.5t120.5 236.5t204.5 151.5t292.5 53.5q168 0 291 -53.5t203.5 -152t120 -237t39.5 -309.5zM438 733q0 -115 20 -206.5t61.5 -155t104.5 -97.5 t150 -34q89 0 152.5 34t104 97.5t60 155t19.5 206.5t-19.5 206.5t-60 155.5t-103.5 98t-151 34q-87 0 -151 -34t-105.5 -98t-61.5 -155.5t-20 -206.5z" unicode="O"/>
<glyph glyph-name="P" horiz-adv-x="1225" d="M494 774h61q131 0 197.5 52t66.5 169q0 109 -59.5 161t-186.5 52h-79v-434zM1133 1006q0 -96 -29 -184t-95.5 -155t-175 -107t-268.5 -40h-71v-520h-310v1462h406q141 0 243.5 -31.5t169 -90t98.5 -143t32 -191.5z" unicode="P"/>
<glyph glyph-name="Q" horiz-adv-x="1548" d="M1430 733q0 -119 -19.5 -223.5t-59 -190.5t-99 -153t-140.5 -111l361 -403h-398l-268 330q-7 0 -13 -1q-5 -1 -10.5 -1h-9.5q-168 0 -291.5 54t-204 153t-120 238.5t-39.5 309.5t39.5 308.5t120.5 236.5t204.5 151.5t292.5 53.5q168 0 291 -53.5t203.5 -152t120 -237 t39.5 -309.5zM438 733q0 -115 20 -206.5t61.5 -155t104.5 -97.5t150 -34q89 0 152.5 34t104 97.5t60 155t19.5 206.5t-19.5 206.5t-60 155.5t-103.5 98t-151 34q-87 0 -151 -34t-105.5 -98t-61.5 -155.5t-20 -206.5z" unicode="Q"/>
<glyph glyph-name="R" horiz-adv-x="1290" d="M494 813h84q129 0 185 51.5t56 151.5q0 104 -60 148t-186 44h-79v-395zM494 561v-561h-310v1462h400q281 0 415 -108.5t134 -329.5q0 -75 -20 -136t-53.5 -108.5t-77 -83t-91.5 -59.5q111 -178 199 -318q38 -60 73.5 -117t63.5 -102t46 -72l17 -28h-344l-317 561h-135z " unicode="R"/>
<glyph glyph-name="S" horiz-adv-x="1073" d="M985 406q0 -98 -33.5 -176.5t-98 -134t-158 -85.5t-214.5 -30q-106 0 -204.5 22t-182.5 66v288q48 -23 97 -44.5t99.5 -38.5t101 -27t100.5 -10q51 0 87.5 11.5t59 32t33 49t10.5 62.5q0 41 -17.5 72.5t-49 59t-76 53.5t-99.5 55q-46 24 -103 58t-107.5 84.5t-84.5 122 t-34 171.5q0 98 32.5 175.5t92.5 131t145.5 81.5t191.5 28q53 0 103.5 -7t100 -20t99.5 -32t103 -44l-100 -241q-45 21 -84 37t-76 27t-72.5 16.5t-71.5 5.5q-78 0 -119.5 -41.5t-41.5 -110.5q0 -37 12.5 -65.5t40 -53.5t71 -51t105.5 -59q75 -40 138 -81.5t108.5 -92 t70.5 -114.5t25 -150z" unicode="S"/>
<glyph glyph-name="T" horiz-adv-x="1124" d="M717 0h-309v1204h-367v258h1042v-258h-366v-1204z" unicode="T"/>
<glyph glyph-name="U" horiz-adv-x="1466" d="M1292 1462v-946q0 -114 -34.5 -212t-105 -170t-176.5 -113t-249 -41q-135 0 -238.5 38.5t-173 109.5t-105.5 170.5t-36 221.5v942h309v-919q0 -81 16 -138.5t47.5 -94t78.5 -53.5t110 -17q131 0 189.5 76t58.5 229v917h309z" unicode="U"/>
<glyph glyph-name="V" horiz-adv-x="1249" d="M936 1462h313l-456 -1462h-338l-455 1462h313l248 -880q5 -17 13.5 -57t18 -88t18.5 -96t14 -81q5 33 14 81t19 95.5t19.5 87.5t14.5 58z" unicode="V"/>
<glyph glyph-name="W" horiz-adv-x="1898" d="M1546 0h-352l-180 721q-4 15 -9.5 42t-12.5 61t-14 71t-13 72t-10.5 64.5t-6.5 47.5q-2 -18 -6.5 -47.5t-10.5 -64t-12.5 -71.5t-13 -71t-12.5 -62t-10 -44l-178 -719h-353l-352 1462h305l166 -798q3 -16 8.5 -46.5t12.5 -68.5t14.5 -80t14.5 -82t13 -74.5t9 -56.5 q3 22 8.5 56t11.5 72.5t13.5 79.5t13.5 76.5t11.5 63t8.5 39.5l203 819h272l203 -819q3 -12 8.5 -39.5t12 -63t13.5 -76.5t13.5 -79.5t12 -72.5t8.5 -56q3 22 8.5 56.5t12.5 74.5t14.5 82t14.5 80t12.5 68.5t8.5 46.5l166 798h305z" unicode="W"/>
<glyph glyph-name="X" horiz-adv-x="1284" d="M1284 0h-354l-299 553l-299 -553h-332l444 754l-413 708h342l274 -526l268 526h334l-418 -725z" unicode="X"/>
<glyph glyph-name="Y" horiz-adv-x="1196" d="M598 860l264 602h334l-444 -893v-569h-308v559l-444 903h336z" unicode="Y"/>
<glyph glyph-name="Z" horiz-adv-x="1104" d="M1055 0h-1006v201l619 1005h-600v256h968v-200l-618 -1006h637v-256z" unicode="Z"/>
<glyph glyph-name="bracketleft" horiz-adv-x="678" d="M627 -324h-484v1786h484v-211h-224v-1364h224v-211z" unicode="["/>
<glyph glyph-name="backslash" horiz-adv-x="846" d="M289 1462l545 -1462h-277l-545 1462h277z" unicode="\"/>
<glyph glyph-name="bracketright" horiz-adv-x="678" d="M51 -113h223v1364h-223v211h484v-1786h-484v211z" unicode="]"/>
<glyph glyph-name="asciicircum" horiz-adv-x="1090" d="M8 520l438 950h144l495 -950h-239l-322 643q-69 -161 -140.5 -324t-139.5 -319h-236z" unicode="^"/>
<glyph glyph-name="underscore" horiz-adv-x="842" d="M846 -324h-850v140h850v-140z" unicode="_"/>
<glyph glyph-name="grave" horiz-adv-x="1182" d="M645 1241q-34 28 -81.5 69.5t-93.5 85.5t-84 84.5t-54 67.5v21h342q16 -34 37.5 -74.5t44.5 -81t47 -78.5t45 -67v-27h-203z" unicode="`"/>
<glyph glyph-name="a" horiz-adv-x="1176" d="M809 0l-59 152h-9q-33 -45 -66 -77.5t-72 -53.5t-87.5 -31t-112.5 -10q-68 0 -126 21.5t-100.5 65t-66.5 110t-24 157.5q0 178 114 262.5t341 93.5l178 6v84q0 69 -40 102t-112 33t-140.5 -21t-137.5 -56l-99 202q84 47 186 74t214 27q209 0 320.5 -98t111.5 -298v-745 h-213zM719 518l-101 -4q-61 -2 -103 -16t-67.5 -37.5t-37 -56t-11.5 -72.5q0 -70 34 -99.5t89 -29.5q42 0 78 14.5t62.5 43t41.5 70t15 95.5v92z" unicode="a"/>
<glyph glyph-name="b" horiz-adv-x="1245" d="M756 1139q86 0 157 -37t122 -110t79.5 -181t28.5 -250q0 -144 -28.5 -252.5t-80.5 -181.5t-125 -110t-161 -37q-56 0 -99.5 12t-77.5 32t-59.5 45.5t-46.5 53.5h-21l-51 -123h-233v1556h305v-362q0 -33 -2 -71.5t-4 -71.5l-6 -78h12q21 35 48 65t62.5 52.5t80.5 35.5 t100 13zM653 895q-51 0 -86.5 -18.5t-57.5 -55.5t-32 -93.5t-12 -131.5v-33q0 -81 9.5 -144t31.5 -105.5t58.5 -64.5t90.5 -22q91 0 133.5 86.5t42.5 251.5t-42.5 247.5t-135.5 82.5z" unicode="b"/>
<glyph glyph-name="c" horiz-adv-x="1022" d="M625 -20q-120 0 -216.5 33t-165 102.5t-105 178t-36.5 259.5q0 167 37.5 279.5t106 180.5t165 97t214.5 29q86 0 171 -21t160 -59l-88 -232q-66 29 -127 47.5t-116 18.5q-111 0 -161 -84.5t-50 -253.5q0 -168 50 -248t157 -80q87 0 158 22.5t145 57.5v-254 q-37 -18 -72 -32t-70.5 -23t-74 -13.5t-82.5 -4.5z" unicode="c"/>
<glyph glyph-name="d" horiz-adv-x="1245" d="M489 -20q-86 0 -157 37t-122 109.5t-79.5 180.5t-28.5 250q0 144 28.5 252.5t81 182t125.5 110.5t161 37q54 0 99 -12.5t81 -35t64.5 -52t50.5 -64.5h10q-6 39 -11 79q-5 34 -8.5 72.5t-3.5 71.5v358h305v-1556h-233l-59 145h-13q-21 -34 -48 -64.5t-62.5 -52.5t-80 -35 t-100.5 -13zM600 223q54 0 92 18.5t61.5 56t35 93.5t12.5 131v33q0 81 -10 144t-33 105.5t-62 64.5t-98 22q-96 0 -141 -86.5t-45 -251.5t45.5 -247.5t142.5 -82.5z" unicode="d"/>
<glyph glyph-name="e" horiz-adv-x="1190" d="M612 922q-81 0 -134.5 -57t-61.5 -179h389q-1 51 -13 94t-36 74.5t-60 49.5t-84 18zM651 -20q-120 0 -221 35t-174 105.5t-113.5 178t-40.5 252.5q0 147 37 257t103.5 183.5t160 110.5t207.5 37q111 0 200.5 -33.5t152 -98.5t96 -159.5t33.5 -216.5v-148h-682 q2 -64 20.5 -115.5t52 -87t81 -54.5t108.5 -19q51 0 96.5 5.5t88.5 16.5t85 27.5t86 38.5v-236q-40 -21 -80.5 -35.5t-85.5 -24.5t-97 -14.5t-114 -4.5z" unicode="e"/>
<glyph glyph-name="f" horiz-adv-x="793" d="M741 889h-227v-889h-305v889h-168v147l168 82v82q0 107 26 177.5t74 112.5t116 59.5t153 17.5q92 0 155 -14.5t107 -32.5l-72 -224q-31 11 -65 20t-80 9q-60 0 -84.5 -38.5t-24.5 -98.5v-70h227v-229z" unicode="f"/>
<glyph glyph-name="g" horiz-adv-x="1130" d="M1085 1116v-166l-163 -51q20 -34 28 -70.5t8 -78.5q0 -85 -27 -155.5t-80 -120.5t-133 -77.5t-186 -27.5q-23 0 -50 2.5t-40 5.5q-20 -17 -31.5 -35.5t-11.5 -44.5q0 -21 13 -33.5t34 -20t49 -10t58 -2.5h174q81 0 145 -18.5t108.5 -56.5t68.5 -96.5t24 -139.5 q0 -95 -38 -171.5t-113.5 -130t-187.5 -82t-259 -28.5q-114 0 -199 21.5t-142 62t-85.5 97.5t-28.5 129q0 61 21 106t56 77t79.5 52t91.5 31q-21 9 -41.5 25t-37 37t-27 46.5t-10.5 53.5q0 32 9.5 58t27.5 48.5t45 42.5t61 41q-88 38 -139.5 122t-51.5 198q0 90 28 161 t82 120.5t134 75.5t184 26q20 0 45 -2.5t49.5 -6t45.5 -7.5t33 -7h380zM285 -158q0 -25 10.5 -48.5t34.5 -41.5t63 -28.5t96 -10.5q156 0 235 44t79 118q0 63 -49 84t-152 21h-141q-27 0 -58 -6.5t-57 -22.5t-43.5 -42.5t-17.5 -66.5zM395 752q0 -91 34 -141t103 -50 q72 0 104 50t32 141q0 90 -31.5 143t-104.5 53q-137 0 -137 -196z" unicode="g"/>
<glyph glyph-name="h" horiz-adv-x="1284" d="M1130 0h-305v653q0 121 -37.5 181.5t-115.5 60.5q-59 0 -99 -24t-64 -71t-34 -116t-10 -158v-526h-305v1556h305v-317q0 -42 -2 -88.5t-5 -85.5q-4 -46 -7 -90h16q49 87 125 125.5t172 38.5q83 0 150.5 -23.5t115.5 -73.5t74 -127.5t26 -185.5v-729z" unicode="h"/>
<glyph glyph-name="i" horiz-adv-x="625" d="M147 1407q0 43 13 71.5t35.5 46t53 24.5t64.5 7t64 -7t52.5 -24.5t36 -46t13.5 -71.5q0 -42 -13.5 -71t-36 -46.5t-52.5 -25t-64 -7.5t-64.5 7.5t-53 25t-35.5 46.5t-13 71zM465 0h-305v1118h305v-1118z" unicode="i"/>
<glyph glyph-name="j" horiz-adv-x="625" d="M102 -492q-48 0 -99 7t-85 18v240q31 -10 58 -14.5t61 -4.5q25 0 47.5 7.5t39 27t26.5 52t10 83.5v1194h305v-1239q0 -77 -19.5 -144.5t-63 -118t-112.5 -79.5t-168 -29zM147 1407q0 43 13 71.5t35.5 46t53 24.5t64.5 7t64 -7t52.5 -24.5t36 -46t13.5 -71.5 q0 -42 -13.5 -71t-36 -46.5t-52.5 -25t-64 -7.5t-64.5 7.5t-53 25t-35.5 46.5t-13 71z" unicode="j"/>
<glyph glyph-name="k" horiz-adv-x="1208" d="M453 608l112 170l273 340h344l-404 -485l430 -633h-352l-272 430l-119 -82v-348h-305v1556h305v-694l-16 -254h4z" unicode="k"/>
<glyph glyph-name="l" horiz-adv-x="625" d="M465 0h-305v1556h305v-1556z" unicode="l"/>
<glyph glyph-name="m" horiz-adv-x="1929" d="M1120 0h-305v653q0 121 -36 181.5t-113 60.5q-58 0 -96.5 -24t-61.5 -71t-33 -116t-10 -158v-526h-305v1118h233l41 -143h17q24 43 57.5 74t73.5 51t85 29.5t91 9.5q115 0 195.5 -39.5t123.5 -124.5h25q24 43 58 74t75 51t86.5 29.5t91.5 9.5q180 0 271.5 -97.5 t91.5 -312.5v-729h-306v653q0 121 -36 181.5t-113 60.5q-109 0 -155 -86.5t-46 -247.5v-561z" unicode="m"/>
<glyph glyph-name="n" horiz-adv-x="1284" d="M1130 0h-305v653q0 121 -36.5 181.5t-116.5 60.5q-60 0 -100 -24t-63.5 -71t-33.5 -116t-10 -158v-526h-305v1118h233l41 -143h17q24 43 58.5 74t75.5 51t87 29.5t94 9.5q82 0 149 -23.5t115 -73.5t74 -127.5t26 -185.5v-729z" unicode="n"/>
<glyph glyph-name="o" horiz-adv-x="1227" d="M414 561q0 -167 47 -251.5t153 -84.5q105 0 152 85t47 251q0 167 -47 249.5t-154 82.5q-105 0 -151.5 -82.5t-46.5 -249.5zM1124 561q0 -140 -35.5 -248t-102 -182t-162 -112.5t-214.5 -38.5q-111 0 -204 38.5t-160.5 112.5t-105.5 182t-38 248q0 139 35.5 247t102 181.5 t161.5 111.5t215 38q111 0 204 -38t160.5 -111.5t105.5 -181.5t38 -247z" unicode="o"/>
<glyph glyph-name="p" horiz-adv-x="1245" d="M748 -20q-55 0 -98.5 12t-77.5 32t-60 45.5t-47 53.5h-16q4 -35 8 -66q3 -26 5.5 -53.5t2.5 -42.5v-453h-305v1610h248l43 -145h14q21 34 48 64t62.5 52.5t80.5 36t100 13.5q87 0 158 -37t122 -110t79 -181t28 -250q0 -143 -29 -251.5t-81.5 -182t-125 -110.5t-159.5 -37 zM653 895q-51 0 -86.5 -18.5t-57.5 -55.5t-32 -93.5t-12 -131.5v-33q0 -81 9.5 -144t31.5 -105.5t58.5 -64.5t90.5 -22q91 0 133.5 86.5t42.5 251.5t-42.5 247.5t-135.5 82.5z" unicode="p"/>
<glyph glyph-name="q" horiz-adv-x="1245" d="M602 219q55 0 92.5 18.5t60.5 55.5t34 93.5t12 131.5v37q0 81 -9.5 144t-33 105.5t-62 64.5t-96.5 22q-96 0 -141 -86.5t-45 -251.5q0 -168 45.5 -251t142.5 -83zM489 -20q-87 0 -158 37t-122 109.5t-79 180.5t-28 250q0 143 28.5 251.5t81 182t125.5 111t161 37.5 q56 0 101 -12.5t81.5 -35t64.5 -52t50 -64.5h8l24 143h258v-1610h-305v469q0 19 2.5 47.5t4.5 55.5q3 32 6 65h-13q-20 -34 -47 -64.5t-62.5 -52.5t-80.5 -35t-101 -13z" unicode="q"/>
<glyph glyph-name="r" horiz-adv-x="889" d="M743 1139q12 0 26.5 -0.5t28 -2t25 -3t17.5 -3.5v-286q-8 2 -22 4t-29.5 3.5t-30.5 2t-25 0.5q-59 0 -108.5 -15t-85 -48.5t-55 -88t-19.5 -133.5v-569h-305v1118h231l45 -168h15q24 43 52 78t62.5 59.5t78 38t99.5 13.5z" unicode="r"/>
<glyph glyph-name="s" horiz-adv-x="985" d="M905 332q0 -88 -32 -154t-91 -110t-143 -66t-188 -22q-55 0 -102 3.5t-89 11.5t-81 20t-79 30v252q42 -21 88.5 -38t92.5 -29.5t89.5 -19.5t80.5 -7q41 0 70 7.5t47.5 21t27 32t8.5 39.5t-6.5 37.5t-29.5 35t-67.5 42t-119.5 57.5q-73 33 -126.5 65.5t-88 72.5 t-51.5 91.5t-17 122.5q0 78 30 136.5t85 97.5t132.5 58.5t172.5 19.5q100 0 190 -23t185 -69l-92 -216q-76 36 -145 59t-138 23q-62 0 -89.5 -22t-27.5 -60q0 -20 7 -35.5t28 -32t59 -36t99 -47.5q71 -31 128 -61.5t98 -69.5t63 -91t22 -126z" unicode="s"/>
<glyph glyph-name="t" horiz-adv-x="848" d="M614 223q45 0 85.5 10t82.5 25v-227q-43 -22 -106.5 -36.5t-138.5 -14.5q-73 0 -136 17t-109 59.5t-72.5 114t-26.5 179.5v539h-146v129l168 102l88 236h195v-238h272v-229h-272v-539q0 -65 32 -96t84 -31z" unicode="t"/>
<glyph glyph-name="u" horiz-adv-x="1284" d="M891 0l-41 143h-16q-25 -43 -59.5 -73.5t-75.5 -50.5t-87 -29.5t-94 -9.5q-82 0 -149 23.5t-115 73.5t-74 127t-26 185v729h305v-653q0 -121 36.5 -181.5t116.5 -60.5q60 0 100 24t63.5 71t33.5 116t10 158v526h305v-1118h-233z" unicode="u"/>
<glyph glyph-name="v" horiz-adv-x="1104" d="M395 0l-395 1118h319l185 -637q17 -57 29.5 -118.5t15.5 -110.5h6q3 53 15.5 112.5t29.5 116.5l184 637h320l-395 -1118h-314z" unicode="v"/>
<glyph glyph-name="w" horiz-adv-x="1651" d="M1014 0l-86 391q-4 17 -10.5 48.5t-14.5 71t-16.5 84t-17.5 88.5q-20 103 -44 222h-6q-23 -119 -42 -223q-8 -44 -16.5 -89t-16.5 -84.5t-14.5 -71.5t-10.5 -50l-90 -387h-328l-301 1118h303l113 -495q9 -39 18.5 -93.5t18 -110t15.5 -105t11 -78.5h6q1 19 4.5 49.5 t8.5 65.5t10.5 71.5t11 68.5t10 56.5t7.5 34.5l122 536h336l117 -536q5 -22 13 -68t16.5 -98.5t14.5 -102t7 -77.5h6q3 25 10.5 74t16.5 105.5t19.5 112.5t19.5 95l117 495h299l-305 -1118h-332z" unicode="w"/>
<glyph glyph-name="x" horiz-adv-x="1122" d="M389 571l-360 547h346l186 -336l189 336h346l-365 -547l381 -571h-346l-205 362l-205 -362h-346z" unicode="x"/>
<glyph glyph-name="y" horiz-adv-x="1104" d="M0 1118h334l180 -629q16 -52 23.5 -111t9.5 -106h6q2 23 5.5 51t8.5 57t11.5 57.5t13.5 51.5l176 629h336l-442 -1261q-62 -177 -169 -263t-268 -86q-52 0 -90 5.5t-65 11.5v242q21 -5 53 -9t67 -4q48 0 82 13t58.5 36.5t42 56.5t30.5 74l19 56z" unicode="y"/>
<glyph glyph-name="z" horiz-adv-x="936" d="M877 0h-822v180l457 705h-426v233h772v-198l-442 -687h461v-233z" unicode="z"/>
<glyph glyph-name="braceleft" horiz-adv-x="745" d="M221.5 408q-65.5 41 -190.5 41v239q62 0 110.5 9.5t81.5 31t49.5 55.5t14.5 82v318q0 74 19 126.5t68.5 86t134.5 49.5t216 16v-225q-40 -1 -72.5 -7t-55 -21.5t-34.5 -42.5t-12 -70v-299q-6 -187 -234 -222v-12q115 -17 176 -72t58 -149v-299q0 -43 12 -70t34.5 -42.5 t55 -21.5t72.5 -7v-226q-131 0 -216 16t-134.5 49.5t-68.5 86.5t-19 127v315q0 97 -65.5 138z" unicode="{"/>
<glyph glyph-name="bar" d="M455 1550h219v-2015h-219v2015z" unicode="|"/>
<glyph glyph-name="braceright" horiz-adv-x="745" d="M469 -45q0 -74 -19 -127t-68.5 -86.5t-134.5 -49.5t-216 -16v226q40 1 72 7t54.5 21.5t35 42.5t12.5 70v299q-3 94 58 149t175 72v12q-227 35 -233 222v299q0 43 -12.5 70t-35 42.5t-54.5 21.5t-72 7v225q131 0 216 -16t134.5 -49.5t68.5 -86t19 -126.5v-318 q-1 -48 15 -82t49 -55.5t81.5 -31t110.5 -9.5v-239q-125 0 -190.5 -41t-65.5 -138v-315z" unicode="}"/>
<glyph glyph-name="asciitilde" d="M528 616q-37 16 -65.5 27t-52 17.5t-44.5 9t-44 2.5q-29 0 -60 -9.5t-61 -26t-58.5 -38.5t-54.5 -47v231q51 54 114.5 81.5t141.5 27.5q30 0 55.5 -2.5t54 -9.5t63.5 -19.5t83 -32.5q38 -16 66.5 -26.5t52.5 -17t45 -9t43 -2.5q29 0 60 9.5t61 25.5t58.5 38.5t53.5 47.5 v-231q-101 -109 -256 -109q-30 0 -55.5 2.5t-54 9t-63.5 19t-83 32.5z" unicode="~"/>
<glyph glyph-name="nonbreakingspace" horiz-adv-x="532" unicode=" "/>
<glyph glyph-name="exclamdown" horiz-adv-x="586" d="M168 606h244l51 -975h-346zM467 948q0 -47 -13.5 -79.5t-37.5 -52.5t-56 -29t-69 -9q-35 0 -66.5 9t-55.5 29t-38 52.5t-14 79.5q0 45 14 77.5t38 53t55.5 30t66.5 9.5q37 0 69 -9.5t56 -30t37.5 -53t13.5 -77.5z" unicode="¡"/>
<glyph glyph-name="cent" d="M543 -20v206q-92 13 -166 50.5t-126 104t-80 166t-28 236.5q0 141 28 242.5t80.5 169.5t126.5 105.5t165 50.5v172h178v-164q38 -1 76 -6.5t73.5 -13.5t67 -18t55.5 -21l-86 -226q-21 10 -47.5 19.5t-54.5 17t-55.5 12t-51.5 4.5q-66 0 -112 -20t-75.5 -61.5t-42.5 -105 t-13 -150.5q0 -171 57 -250.5t186 -79.5q76 0 146.5 18.5t120.5 42.5v-239q-51 -29 -113 -44.5t-131 -17.5v-200h-178z" unicode="¢"/>
<glyph glyph-name="sterling" d="M680 1483q110 0 199.5 -24t169.5 -58l-93 -230q-71 29 -129.5 46.5t-121.5 17.5q-67 0 -104.5 -38.5t-37.5 -133.5v-193h334v-219h-334v-143q0 -55 -13.5 -95.5t-35.5 -69.5t-48.5 -49t-53.5 -34h678v-260h-1008v248q42 18 75.5 39t57 50t35.5 70t12 99v145h-178v219h178 v195q0 113 31.5 192.5t87 129.5t132 73t167.5 23z" unicode="£"/>
<glyph glyph-name="currency" d="M168 723q0 54 14 103.5t39 93.5l-129 127l148 147l127 -127q43 25 94 39t102 14q54 0 102 -13.5t95 -41.5l127 129l149 -143l-129 -129q25 -42 39.5 -93.5t14.5 -105.5q0 -56 -14 -105t-40 -94l125 -125l-145 -145l-127 125q-44 -23 -93.5 -37t-103.5 -14 q-56 0 -105.5 12.5t-92.5 38.5l-125 -123l-146 145l127 125q-53 91 -53 197zM375 723q0 -39 15 -73.5t40.5 -60t59.5 -40t73 -14.5q40 0 75 14.5t61.5 40t41.5 60t15 73.5q0 40 -15 74.5t-41.5 60t-61.5 40.5t-75 15q-39 0 -73 -15t-59.5 -40.5t-40.5 -60t-15 -74.5z" unicode="¤"/>
<glyph glyph-name="yen" d="M565 860l244 602h313l-362 -747h194v-178h-245v-138h245v-178h-245v-221h-287v221h-248v178h248v138h-248v178h191l-357 747h316z" unicode="¥"/>
<glyph glyph-name="brokenbar" d="M455 1550h219v-815h-219v815zM455 350h219v-815h-219v815z" unicode="¦"/>
<glyph glyph-name="section" horiz-adv-x="995" d="M121 805q0 44 10.5 81.5t29 69t42.5 56.5t51 43q-63 40 -98 99t-35 134q0 65 29 118.5t82.5 91.5t128 58.5t165.5 20.5q102 0 190 -23.5t173 -60.5l-82 -190q-68 32 -138.5 57.5t-148.5 25.5q-81 0 -118 -23t-37 -71q0 -25 12 -46t38 -40.5t66.5 -39t96.5 -42.5 q71 -28 129.5 -62t100 -75.5t64.5 -92t23 -112.5q0 -100 -34.5 -161.5t-90.5 -98.5q62 -40 93.5 -92.5t31.5 -126.5t-31 -133.5t-88 -101.5t-138.5 -65t-182.5 -23q-110 0 -194.5 20.5t-154.5 58.5v207q39 -20 84 -37.5t91 -31t90.5 -21.5t83.5 -8q56 0 93 9t59.5 25t32 37 t9.5 46t-7.5 44.5t-30 38.5t-63 40t-106.5 49q-76 32 -136 64t-101 72.5t-62.5 91.5t-21.5 120zM344 827q0 -63 56.5 -111.5t174.5 -99.5l15 -6q15 11 29 25.5t25 32.5t17.5 40t6.5 48q0 32 -10.5 59t-36.5 52.5t-71.5 50t-115.5 49.5q-18 -7 -34 -20.5t-28.5 -31.5t-20 -40 t-7.5 -48z" unicode="§"/>
<glyph glyph-name="dieresis" horiz-adv-x="1182" d="M248 1405q0 35 11 60.5t29.5 42t44 24.5t54.5 8t54.5 -8t44.5 -24.5t30.5 -42t11.5 -60.5q0 -34 -11.5 -59t-30.5 -41.5t-44.5 -24.5t-54.5 -8t-54.5 8t-44 24.5t-29.5 41.5t-11 59zM651 1405q0 35 11 60.5t30 42t45 24.5t56 8q28 0 53.5 -8t45 -24.5t31 -42t11.5 -60.5 q0 -34 -11.5 -59t-31 -41.5t-45 -24.5t-53.5 -8q-60 0 -101 33t-41 100z" unicode="¨"/>
<glyph glyph-name="copyright" horiz-adv-x="1704" d="M895 1010q-97 0 -150 -74t-53 -205q0 -135 48 -207.5t155 -72.5q57 0 123 15t123 44v-191q-57 -27 -116 -42t-136 -15q-107 0 -187 34t-133.5 96t-80.5 148.5t-27 192.5q0 103 26 188.5t78.5 147t131.5 95.5t184 34q83 0 160 -22t145 -56l-74 -168q-113 58 -217 58z M100 731q0 104 27 200t75.5 179.5t117.5 152.5t152.5 117.5t179.5 75.5t200 27t200 -27t179.5 -75.5t152.5 -117.5t117.5 -152.5t75.5 -179.5t27 -200t-27 -200t-75.5 -179.5t-117.5 -152t-152.5 -117.5t-179.5 -75.5t-200 -26.5t-200 26.5t-179.5 75.5t-152.5 117.5 t-117.5 152t-75.5 179.5t-27 200zM242 731q0 -127 48 -238t130.5 -193.5t193.5 -130.5t238 -48t238 48t193.5 130.5t130.5 193.5t48 238t-48 238t-130.5 193.5t-193.5 130.5t-238 48t-238 -48t-193.5 -130.5t-130.5 -193.5t-48 -238z" unicode="©"/>
<glyph glyph-name="ordfeminine" horiz-adv-x="743" d="M520 764l-31 110q-40 -58 -96.5 -90t-124.5 -32q-50 0 -90.5 13.5t-69.5 41t-45 69.5t-16 99q0 60 21.5 101.5t62 68t100 40t134.5 17.5l90 4q0 63 -29.5 90t-83.5 27q-40 0 -89 -17t-101 -44l-66 135q62 32 136 57t165 25q68 0 118.5 -19.5t83.5 -55t49.5 -86 t16.5 -112.5v-442h-135zM373 1081q-38 -3 -61.5 -13t-37 -24.5t-18 -31.5t-4.5 -35q0 -38 19 -56t46 -18q32 0 57.5 11t43.5 30.5t27.5 47t9.5 59.5v36z" unicode="ª"/>
<glyph glyph-name="guillemotleft" horiz-adv-x="1198" d="M82 573l309 455l219 -119l-217 -348l217 -348l-219 -119l-309 453v26zM588 573l309 455l219 -119l-217 -348l217 -348l-219 -119l-309 453v26z" unicode="«"/>
<glyph glyph-name="logicalnot" d="M1040 248h-219v364h-733v219h952v-583z" unicode="¬"/>
<glyph glyph-name="uni00AD" horiz-adv-x="659" d="M61 424v250h537v-250h-537z" unicode="­"/>
<glyph glyph-name="registered" horiz-adv-x="1704" d="M1157 905q0 -94 -38.5 -149t-104.5 -84l237 -400h-254l-178 338h-47v-338h-229v916h264q182 0 266 -70t84 -213zM772 778h31q66 0 94.5 28.5t28.5 94.5q0 35 -7.5 58t-23 36.5t-39 19t-55.5 5.5h-29v-242zM100 731q0 104 27 200t75.5 179.5t117.5 152.5t152.5 117.5 t179.5 75.5t200 27t200 -27t179.5 -75.5t152.5 -117.5t117.5 -152.5t75.5 -179.5t27 -200t-27 -200t-75.5 -179.5t-117.5 -152t-152.5 -117.5t-179.5 -75.5t-200 -26.5t-200 26.5t-179.5 75.5t-152.5 117.5t-117.5 152t-75.5 179.5t-27 200zM242 731q0 -127 48 -238 t130.5 -193.5t193.5 -130.5t238 -48t238 48t193.5 130.5t130.5 193.5t48 238t-48 238t-130.5 193.5t-193.5 130.5t-238 48t-238 -48t-193.5 -130.5t-130.5 -193.5t-48 -238z" unicode="®"/>
<glyph glyph-name="overscore" horiz-adv-x="1024" d="M1030 1556h-1036v201h1036v-201z" unicode="¯"/>
<glyph glyph-name="degree" horiz-adv-x="877" d="M92 1137q0 71 27 134t74 110t110 74.5t135 27.5t135.5 -27.5t110 -74.5t73.5 -110t27 -134q0 -72 -27 -135t-73.5 -109.5t-110 -73t-135.5 -26.5t-135 26.5t-110 73t-74 109.5t-27 135zM283 1137q0 -31 12 -59t33 -49t49.5 -33.5t60.5 -12.5t60.5 12.5t49.5 33.5t33.5 49 t12.5 59q0 32 -12.5 60.5t-33.5 50t-49.5 34t-60.5 12.5t-60.5 -12.5t-49.5 -34t-33 -50t-12 -60.5z" unicode="°"/>
<glyph glyph-name="plusminus" d="M455 674h-367v219h367v369h219v-369h366v-219h-366v-365h-219v365zM88 0v219h952v-219h-952z" unicode="±"/>
<glyph glyph-name="twosuperior" horiz-adv-x="776" d="M702 586h-647v168l224 219q46 45 76.5 78t49 60t26 50.5t7.5 50.5q0 38 -24 58t-64 20t-83.5 -20.5t-96.5 -67.5l-123 152q65 57 146 93t190 36q66 0 120.5 -16.5t93 -48t60 -78t21.5 -107.5q0 -46 -12.5 -86.5t-39.5 -81.5t-69 -85.5t-102 -98.5l-105 -95h352v-200z" unicode="²"/>
<glyph glyph-name="threesuperior" horiz-adv-x="776" d="M666 1249q0 -69 -40.5 -119t-129.5 -79v-13q51 -10 88 -31t61.5 -48.5t36.5 -60.5t12 -69q0 -121 -88 -190.5t-274 -69.5q-76 0 -142 17.5t-131 52.5v190q66 -40 132 -65t139 -25q74 0 108.5 27t34.5 80q0 21 -8 40t-27 33.5t-51 23.5t-80 9h-112v160h92q52 0 84 9 t50 24.5t24 35t6 40.5q0 38 -25 63t-76 25q-47 0 -89 -19t-99 -59l-101 141q62 47 137.5 78t178.5 31q62 0 115 -16.5t91.5 -46.5t60.5 -73t22 -96z" unicode="³"/>
<glyph glyph-name="acute" horiz-adv-x="1182" d="M332 1241v27q21 29 45 67t47.5 78.5t44.5 81t37 74.5h342v-21q-11 -18 -32 -42.5t-48 -52.5t-58 -57.5t-62.5 -57.5t-60.5 -53t-52 -44h-203z" unicode="´"/>
<glyph glyph-name="mu" horiz-adv-x="1290" d="M465 465q0 -121 37.5 -181.5t118.5 -60.5q58 0 97 24t63 71t34 116t10 158v526h305v-1118h-233l-43 150h-12q-35 -85 -87.5 -127.5t-127.5 -42.5q-54 0 -99 23t-73 67q2 -42 5 -85q2 -37 3.5 -79t1.5 -78v-320h-305v1610h305v-653z" unicode="µ"/>
<glyph glyph-name="paragraph" horiz-adv-x="1341" d="M1167 -260h-161v1616h-166v-1616h-162v819q-61 -18 -146 -18q-95 0 -172.5 25.5t-132 84.5t-84.5 155t-30 236q0 147 32.5 245.5t92 158.5t142.5 85t183 25h604v-1816z" unicode="¶"/>
<glyph glyph-name="periodcentered" horiz-adv-x="584" d="M117 723q0 47 13.5 79.5t37.5 52.5t56 29t69 9q35 0 66.5 -9t55.5 -29t38 -52.5t14 -79.5q0 -45 -14 -77.5t-38 -53t-55.5 -30t-66.5 -9.5q-37 0 -69 9.5t-56 30t-37.5 53t-13.5 77.5z" unicode="·"/>
<glyph glyph-name="cedilla" horiz-adv-x="420" d="M418 -250q0 -57 -15.5 -102t-51.5 -76t-95.5 -47.5t-146.5 -16.5q-45 0 -81 6t-65 15v168q15 -4 33.5 -7.5t38 -6.5t38 -5t33.5 -2q29 0 50.5 13.5t21.5 48.5q0 37 -37 65.5t-129 42.5l78 154h193l-27 -61q31 -10 60 -27t51.5 -40.5t36.5 -54t14 -67.5z" unicode="¸"/>
<glyph glyph-name="onesuperior" horiz-adv-x="776" d="M584 586h-238v446q0 20 0.5 50.5t2 61.5t3 57t2.5 38q-6 -8 -15.5 -18.5t-20 -21.5t-21 -21t-18.5 -17l-78 -61l-109 127l301 235h191v-876z" unicode="¹"/>
<glyph glyph-name="ordmasculine" horiz-adv-x="754" d="M696 1116q0 -87 -22.5 -154.5t-64.5 -114t-101 -71t-133 -24.5q-69 0 -127.5 24.5t-101 71t-66 114t-23.5 154.5t22.5 154.5t64 114t101 70.5t134.5 24q68 0 125.5 -24t100.5 -70.5t67 -114t24 -154.5zM260 1116q0 -100 27.5 -150.5t89.5 -50.5q60 0 87.5 50.5 t27.5 150.5t-27.5 149.5t-87.5 49.5q-62 0 -89.5 -49.5t-27.5 -149.5z" unicode="º"/>
<glyph glyph-name="guillemotright" horiz-adv-x="1198" d="M1118 547l-309 -453l-219 119l217 348l-217 348l219 119l309 -455v-26zM612 547l-309 -453l-219 119l217 348l-217 348l219 119l309 -455v-26z" unicode="»"/>
<glyph glyph-name="onequarter" horiz-adv-x="1804" d="M1370 1462l-811 -1462h-239l811 1462h239zM538 586h-238v446q0 20 0.5 50.5t2 61.5t3 57t2.5 38q-6 -8 -15.5 -18.5t-20 -21.5t-21 -21t-18.5 -17l-78 -61l-109 127l301 235h191v-876zM1682 152h-125v-151h-238v151h-383v154l385 577h236v-563h125v-168zM1319 320v164 q0 42 1.5 88.5t4.5 95.5q-5 -13 -14.5 -34.5t-20.5 -44t-22 -43.5t-20 -35l-127 -191h198z" unicode="¼"/>
<glyph glyph-name="onehalf" horiz-adv-x="1804" d="M1370 1462l-811 -1462h-239l811 1462h239zM538 586h-238v446q0 20 0.5 50.5t2 61.5t3 57t2.5 38q-6 -8 -15.5 -18.5t-20 -21.5t-21 -21t-18.5 -17l-78 -61l-109 127l301 235h191v-876zM1716 1h-647v168l224 219q46 45 76.5 78t49 60t26 50.5t7.5 50.5q0 38 -24 58t-64 20 t-83.5 -20.5t-96.5 -67.5l-123 152q65 57 146 93t190 36q66 0 120.5 -16.5t93 -48t60 -78t21.5 -107.5q0 -46 -12.5 -86.5t-39.5 -81.5t-69 -85.5t-102 -98.5l-105 -95h352v-200z" unicode="½"/>
<glyph glyph-name="threequarters" horiz-adv-x="1804" d="M1441 1462l-811 -1462h-239l811 1462h239zM1712 152h-125v-151h-238v151h-383v154l385 577h236v-563h125v-168zM1349 320v164q0 42 1.5 88.5t4.5 95.5q-5 -13 -14.5 -34.5t-20.5 -44t-22 -43.5t-20 -35l-127 -191h198zM697 1249q0 -69 -40.5 -119t-129.5 -79v-13 q51 -10 88 -31t61.5 -48.5t36.5 -60.5t12 -69q0 -121 -88 -190.5t-274 -69.5q-76 0 -142 17.5t-131 52.5v190q66 -40 132 -65t139 -25q74 0 108.5 27t34.5 80q0 21 -8 40t-27 33.5t-51 23.5t-80 9h-112v160h92q52 0 84 9t50 24.5t24 35t6 40.5q0 38 -25 63t-76 25 q-47 0 -89 -19t-99 -59l-101 141q62 47 137.5 78t178.5 31q62 0 115 -16.5t91.5 -46.5t60.5 -73t22 -96z" unicode="¾"/>
<glyph glyph-name="questiondown" horiz-adv-x="940" d="M686 606v-74q0 -51 -10.5 -92.5t-32 -79t-55.5 -72.5t-82 -73q-42 -33 -71 -59t-47 -51.5t-26 -53.5t-8 -65q0 -57 39 -94t117 -37q69 0 149 29.5t164 70.5l103 -221q-43 -26 -94 -48.5t-105.5 -39.5t-110.5 -27t-110 -10q-102 0 -183.5 24.5t-138.5 71t-87.5 114 t-30.5 152.5q0 63 13.5 112.5t41.5 92t69.5 82.5t96.5 84q41 33 67.5 57.5t41.5 46.5t20.5 46t5.5 55v59h264zM719 948q0 -47 -13.5 -79.5t-37.5 -52.5t-56 -29t-69 -9q-35 0 -66.5 9t-55.5 29t-38 52.5t-14 79.5q0 45 14 77.5t38 53t55.5 30t66.5 9.5q37 0 69 -9.5t56 -30 t37.5 -53t13.5 -77.5z" unicode="¿"/>
<glyph glyph-name="Agrave" horiz-adv-x="1331" d="M1018 0l-100 348h-504l-101 -348h-313l475 1468h379l477 -1468h-313zM846 608l-94 320q-6 18 -18 59t-25.5 90.5t-25.5 99.5t-17 85q-4 -22 -10.5 -52t-15 -63.5t-17.5 -67.5t-17 -64t-14.5 -53t-9.5 -34l-93 -320h357zM632 1579q-34 28 -81.5 69.5t-93.5 85.5t-84 84.5 t-54 67.5v21h342q16 -34 37.5 -74.5t44.5 -81t47 -78.5t45 -67v-27h-203z" unicode="À"/>
<glyph glyph-name="Aacute" horiz-adv-x="1331" d="M1018 0l-100 348h-504l-101 -348h-313l475 1468h379l477 -1468h-313zM846 608l-94 320q-6 18 -18 59t-25.5 90.5t-25.5 99.5t-17 85q-4 -22 -10.5 -52t-15 -63.5t-17.5 -67.5t-17 -64t-14.5 -53t-9.5 -34l-93 -320h357zM494 1579v27q21 29 45 67t47.5 78.5t44.5 81 t37 74.5h342v-21q-11 -18 -32 -42.5t-48 -52.5t-58 -57.5t-62.5 -57.5t-60.5 -53t-52 -44h-203z" unicode="Á"/>
<glyph glyph-name="Acircumflex" horiz-adv-x="1331" d="M1018 0l-100 348h-504l-101 -348h-313l475 1468h379l477 -1468h-313zM846 608l-94 320q-6 18 -18 59t-25.5 90.5t-25.5 99.5t-17 85q-4 -22 -10.5 -52t-15 -63.5t-17.5 -67.5t-17 -64t-14.5 -53t-9.5 -34l-93 -320h357zM879 1579q-51 34 -106 77t-107 99 q-54 -56 -106 -99t-103 -77h-203v27q26 29 57.5 67t64 78.5t62.5 81t52 74.5h356q21 -34 51 -74.5t62.5 -81t65 -78.5t57.5 -67v-27h-203z" unicode="Â"/>
<glyph glyph-name="Atilde" horiz-adv-x="1331" d="M1018 0l-100 348h-504l-101 -348h-313l475 1468h379l477 -1468h-313zM846 608l-94 320q-6 18 -18 59t-25.5 90.5t-25.5 99.5t-17 85q-4 -22 -10.5 -52t-15 -63.5t-17.5 -67.5t-17 -64t-14.5 -53t-9.5 -34l-93 -320h357zM504 1684q-31 0 -49.5 -26.5t-30.5 -80.5h-149 q6 80 26 138t52.5 96t76.5 56.5t97 18.5q41 0 80 -16t77.5 -35.5t76 -36t73.5 -16.5q31 0 49 26t31 80h149q-6 -79 -26.5 -137t-53.5 -96.5t-76.5 -57t-95.5 -18.5q-40 0 -80 16.5t-78 36t-75.5 36t-73.5 16.5z" unicode="Ã"/>
<glyph glyph-name="Adieresis" horiz-adv-x="1331" d="M1018 0l-100 348h-504l-101 -348h-313l475 1468h379l477 -1468h-313zM846 608l-94 320q-6 18 -18 59t-25.5 90.5t-25.5 99.5t-17 85q-4 -22 -10.5 -52t-15 -63.5t-17.5 -67.5t-17 -64t-14.5 -53t-9.5 -34l-93 -320h357zM324 1743q0 35 11 60.5t29.5 42t44 24.5t54.5 8 t54.5 -8t44.5 -24.5t30.5 -42t11.5 -60.5q0 -34 -11.5 -59t-30.5 -41.5t-44.5 -24.5t-54.5 -8t-54.5 8t-44 24.5t-29.5 41.5t-11 59zM727 1743q0 35 11 60.5t30 42t45 24.5t56 8q28 0 53.5 -8t45 -24.5t31 -42t11.5 -60.5q0 -34 -11.5 -59t-31 -41.5t-45 -24.5t-53.5 -8 q-60 0 -101 33t-41 100z" unicode="Ä"/>
<glyph glyph-name="Aring" horiz-adv-x="1331" d="M1018 0l-100 348h-504l-101 -348h-313l475 1468h379l477 -1468h-313zM846 608l-94 320q-6 18 -18 59t-25.5 90.5t-25.5 99.5t-17 85q-4 -22 -10.5 -52t-15 -63.5t-17.5 -67.5t-17 -64t-14.5 -53t-9.5 -34l-93 -320h357zM918 1567q0 -56 -19.5 -100.5t-54 -75.5 t-80.5 -47.5t-100 -16.5q-55 0 -101 16.5t-78.5 47t-50.5 75t-18 99.5t18 99t50.5 74.5t78.5 47t101 16.5q53 0 99 -16.5t80.5 -47t54.5 -74t20 -97.5zM760 1565q0 45 -27 70.5t-69 25.5t-69 -25.5t-27 -70.5t24 -71t72 -26q42 0 69 26t27 71z" unicode="Å"/>
<glyph glyph-name="AE" horiz-adv-x="1888" d="M1767 0h-841v348h-461l-150 -348h-315l655 1462h1112v-254h-532v-321h496v-254h-496v-377h532v-256zM578 608h348v590h-97z" unicode="Æ"/>
<glyph glyph-name="Ccedilla" horiz-adv-x="1305" d="M805 1225q-89 0 -157.5 -34.5t-115 -99t-70.5 -157t-24 -207.5q0 -117 21.5 -208t66 -153.5t114 -95t165.5 -32.5q89 0 178.5 20t194.5 57v-260q-48 -20 -95 -34t-96 -23t-100.5 -13.5t-110.5 -4.5q-169 0 -293 54t-205 152t-120 236t-39 307q0 166 45 304.5t132 238.5 t215 155.5t294 55.5q109 0 218.5 -27.5t209.5 -75.5l-100 -252q-82 39 -165 68t-163 29zM926 -250q0 -57 -15.5 -102t-51.5 -76t-95.5 -47.5t-146.5 -16.5q-45 0 -81 6t-65 15v168q15 -4 33.5 -7.5t38 -6.5t38 -5t33.5 -2q29 0 50.5 13.5t21.5 48.5q0 37 -37 65.5t-129 42.5 l78 154h193l-27 -61q31 -10 60 -27t51.5 -40.5t36.5 -54t14 -67.5z" unicode="Ç"/>
<glyph glyph-name="Egrave" horiz-adv-x="1147" d="M1026 0h-842v1462h842v-254h-532v-321h495v-254h-495v-377h532v-256zM572 1579q-34 28 -81.5 69.5t-93.5 85.5t-84 84.5t-54 67.5v21h342q16 -34 37.5 -74.5t44.5 -81t47 -78.5t45 -67v-27h-203z" unicode="È"/>
<glyph glyph-name="Eacute" horiz-adv-x="1147" d="M1026 0h-842v1462h842v-254h-532v-321h495v-254h-495v-377h532v-256zM424 1579v27q21 29 45 67t47.5 78.5t44.5 81t37 74.5h342v-21q-11 -18 -32 -42.5t-48 -52.5t-58 -57.5t-62.5 -57.5t-60.5 -53t-52 -44h-203z" unicode="É"/>
<glyph glyph-name="Ecircumflex" horiz-adv-x="1147" d="M1026 0h-842v1462h842v-254h-532v-321h495v-254h-495v-377h532v-256zM832 1579q-51 34 -106 77t-107 99q-54 -56 -106 -99t-103 -77h-203v27q26 29 57.5 67t64 78.5t62.5 81t52 74.5h356q21 -34 51 -74.5t62.5 -81t65 -78.5t57.5 -67v-27h-203z" unicode="Ê"/>
<glyph glyph-name="Edieresis" horiz-adv-x="1147" d="M1026 0h-842v1462h842v-254h-532v-321h495v-254h-495v-377h532v-256zM273 1743q0 35 11 60.5t29.5 42t44 24.5t54.5 8t54.5 -8t44.5 -24.5t30.5 -42t11.5 -60.5q0 -34 -11.5 -59t-30.5 -41.5t-44.5 -24.5t-54.5 -8t-54.5 8t-44 24.5t-29.5 41.5t-11 59zM676 1743 q0 35 11 60.5t30 42t45 24.5t56 8q28 0 53.5 -8t45 -24.5t31 -42t11.5 -60.5q0 -34 -11.5 -59t-31 -41.5t-45 -24.5t-53.5 -8q-60 0 -101 33t-41 100z" unicode="Ë"/>
<glyph glyph-name="Igrave" horiz-adv-x="797" d="M731 0h-665v176l178 82v946l-178 82v176h665v-176l-178 -82v-946l178 -82v-176zM355 1579q-34 28 -81.5 69.5t-93.5 85.5t-84 84.5t-54 67.5v21h342q16 -34 37.5 -74.5t44.5 -81t47 -78.5t45 -67v-27h-203z" unicode="Ì"/>
<glyph glyph-name="Iacute" horiz-adv-x="797" d="M731 0h-665v176l178 82v946l-178 82v176h665v-176l-178 -82v-946l178 -82v-176zM237 1579v27q21 29 45 67t47.5 78.5t44.5 81t37 74.5h342v-21q-11 -18 -32 -42.5t-48 -52.5t-58 -57.5t-62.5 -57.5t-60.5 -53t-52 -44h-203z" unicode="Í"/>
<glyph glyph-name="Icircumflex" horiz-adv-x="797" d="M731 0h-665v176l178 82v946l-178 82v176h665v-176l-178 -82v-946l178 -82v-176zM609 1579q-51 34 -106 77t-107 99q-54 -56 -106 -99t-103 -77h-203v27q26 29 57.5 67t64 78.5t62.5 81t52 74.5h356q21 -34 51 -74.5t62.5 -81t65 -78.5t57.5 -67v-27h-203z" unicode="Î"/>
<glyph glyph-name="Idieresis" horiz-adv-x="797" d="M731 0h-665v176l178 82v946l-178 82v176h665v-176l-178 -82v-946l178 -82v-176zM54 1743q0 35 11 60.5t29.5 42t44 24.5t54.5 8t54.5 -8t44.5 -24.5t30.5 -42t11.5 -60.5q0 -34 -11.5 -59t-30.5 -41.5t-44.5 -24.5t-54.5 -8t-54.5 8t-44 24.5t-29.5 41.5t-11 59z M457 1743q0 35 11 60.5t30 42t45 24.5t56 8q28 0 53.5 -8t45 -24.5t31 -42t11.5 -60.5q0 -34 -11.5 -59t-31 -41.5t-45 -24.5t-53.5 -8q-60 0 -101 33t-41 100z" unicode="Ï"/>
<glyph glyph-name="Eth" horiz-adv-x="1434" d="M47 850h137v612h428q161 0 290.5 -46t221.5 -136.5t141.5 -224.5t49.5 -310q0 -185 -50.5 -324.5t-146 -233t-234 -140.5t-315.5 -47h-385v596h-137v254zM1001 737q0 122 -24.5 210.5t-71 146.5t-114 86t-154.5 28h-143v-358h237v-254h-237v-340h114q196 0 294.5 120 t98.5 361z" unicode="Ð"/>
<glyph glyph-name="Ntilde" horiz-adv-x="1604" d="M1419 0h-393l-575 1106h-9q6 -77 10 -153q4 -65 6.5 -136.5t2.5 -128.5v-688h-277v1462h391l574 -1095h6q-3 76 -7 150q-1 32 -2.5 65.5t-2.5 67t-1.5 64.5t-0.5 56v692h278v-1462zM623 1684q-31 0 -49.5 -26.5t-30.5 -80.5h-149q6 80 26 138t52.5 96t76.5 56.5t97 18.5 q41 0 80 -16t77.5 -35.5t76 -36t73.5 -16.5q31 0 49 26t31 80h149q-6 -79 -26.5 -137t-53.5 -96.5t-76.5 -57t-95.5 -18.5q-40 0 -80 16.5t-78 36t-75.5 36t-73.5 16.5z" unicode="Ñ"/>
<glyph glyph-name="Ograve" horiz-adv-x="1548" d="M1430 733q0 -169 -39.5 -308t-120.5 -238t-204.5 -153t-291.5 -54t-291.5 54t-204 153t-120 238.5t-39.5 309.5t39.5 308.5t120.5 236.5t204.5 151.5t292.5 53.5q168 0 291 -53.5t203.5 -152t120 -237t39.5 -309.5zM438 733q0 -115 20 -206.5t61.5 -155t104.5 -97.5 t150 -34q89 0 152.5 34t104 97.5t60 155t19.5 206.5t-19.5 206.5t-60 155.5t-103.5 98t-151 34q-87 0 -151 -34t-105.5 -98t-61.5 -155.5t-20 -206.5zM729 1579q-34 28 -81.5 69.5t-93.5 85.5t-84 84.5t-54 67.5v21h342q16 -34 37.5 -74.5t44.5 -81t47 -78.5t45 -67v-27 h-203z" unicode="Ò"/>
<glyph glyph-name="Oacute" horiz-adv-x="1548" d="M1430 733q0 -169 -39.5 -308t-120.5 -238t-204.5 -153t-291.5 -54t-291.5 54t-204 153t-120 238.5t-39.5 309.5t39.5 308.5t120.5 236.5t204.5 151.5t292.5 53.5q168 0 291 -53.5t203.5 -152t120 -237t39.5 -309.5zM438 733q0 -115 20 -206.5t61.5 -155t104.5 -97.5 t150 -34q89 0 152.5 34t104 97.5t60 155t19.5 206.5t-19.5 206.5t-60 155.5t-103.5 98t-151 34q-87 0 -151 -34t-105.5 -98t-61.5 -155.5t-20 -206.5zM590 1579v27q21 29 45 67t47.5 78.5t44.5 81t37 74.5h342v-21q-11 -18 -32 -42.5t-48 -52.5t-58 -57.5t-62.5 -57.5 t-60.5 -53t-52 -44h-203z" unicode="Ó"/>
<glyph glyph-name="Ocircumflex" horiz-adv-x="1548" d="M1430 733q0 -169 -39.5 -308t-120.5 -238t-204.5 -153t-291.5 -54t-291.5 54t-204 153t-120 238.5t-39.5 309.5t39.5 308.5t120.5 236.5t204.5 151.5t292.5 53.5q168 0 291 -53.5t203.5 -152t120 -237t39.5 -309.5zM438 733q0 -115 20 -206.5t61.5 -155t104.5 -97.5 t150 -34q89 0 152.5 34t104 97.5t60 155t19.5 206.5t-19.5 206.5t-60 155.5t-103.5 98t-151 34q-87 0 -151 -34t-105.5 -98t-61.5 -155.5t-20 -206.5zM975 1579q-51 34 -106 77t-107 99q-54 -56 -106 -99t-103 -77h-203v27q26 29 57.5 67t64 78.5t62.5 81t52 74.5h356 q21 -34 51 -74.5t62.5 -81t65 -78.5t57.5 -67v-27h-203z" unicode="Ô"/>
<glyph glyph-name="Otilde" horiz-adv-x="1548" d="M1430 733q0 -169 -39.5 -308t-120.5 -238t-204.5 -153t-291.5 -54t-291.5 54t-204 153t-120 238.5t-39.5 309.5t39.5 308.5t120.5 236.5t204.5 151.5t292.5 53.5q168 0 291 -53.5t203.5 -152t120 -237t39.5 -309.5zM438 733q0 -115 20 -206.5t61.5 -155t104.5 -97.5 t150 -34q89 0 152.5 34t104 97.5t60 155t19.5 206.5t-19.5 206.5t-60 155.5t-103.5 98t-151 34q-87 0 -151 -34t-105.5 -98t-61.5 -155.5t-20 -206.5zM612 1684q-31 0 -49.5 -26.5t-30.5 -80.5h-149q6 80 26 138t52.5 96t76.5 56.5t97 18.5q41 0 80 -16t77.5 -35.5t76 -36 t73.5 -16.5q31 0 49 26t31 80h149q-6 -79 -26.5 -137t-53.5 -96.5t-76.5 -57t-95.5 -18.5q-40 0 -80 16.5t-78 36t-75.5 36t-73.5 16.5z" unicode="Õ"/>
<glyph glyph-name="Odieresis" horiz-adv-x="1548" d="M1430 733q0 -169 -39.5 -308t-120.5 -238t-204.5 -153t-291.5 -54t-291.5 54t-204 153t-120 238.5t-39.5 309.5t39.5 308.5t120.5 236.5t204.5 151.5t292.5 53.5q168 0 291 -53.5t203.5 -152t120 -237t39.5 -309.5zM438 733q0 -115 20 -206.5t61.5 -155t104.5 -97.5 t150 -34q89 0 152.5 34t104 97.5t60 155t19.5 206.5t-19.5 206.5t-60 155.5t-103.5 98t-151 34q-87 0 -151 -34t-105.5 -98t-61.5 -155.5t-20 -206.5zM428 1743q0 35 11 60.5t29.5 42t44 24.5t54.5 8t54.5 -8t44.5 -24.5t30.5 -42t11.5 -60.5q0 -34 -11.5 -59t-30.5 -41.5 t-44.5 -24.5t-54.5 -8t-54.5 8t-44 24.5t-29.5 41.5t-11 59zM831 1743q0 35 11 60.5t30 42t45 24.5t56 8q28 0 53.5 -8t45 -24.5t31 -42t11.5 -60.5q0 -34 -11.5 -59t-31 -41.5t-45 -24.5t-53.5 -8q-60 0 -101 33t-41 100z" unicode="Ö"/>
<glyph glyph-name="multiply" d="M408 723l-299 301l151 154l301 -299l305 299l154 -150l-305 -305l301 -303l-150 -152l-305 301l-301 -299l-149 152z" unicode="×"/>
<glyph glyph-name="Oslash" horiz-adv-x="1548" d="M1430 733q0 -169 -39.5 -308t-120.5 -238t-204.5 -153t-291.5 -54q-179 0 -307 61l-72 -117l-168 94l82 134q-97 100 -143.5 248t-46.5 335q0 170 39.5 308.5t120.5 236.5t204.5 151.5t292.5 53.5q91 0 168.5 -16.5t142.5 -47.5l70 111l166 -96l-80 -129 q94 -99 140.5 -244.5t46.5 -329.5zM438 733q0 -180 47 -295l457 746q-69 43 -166 43q-87 0 -151 -34t-105.5 -98t-61.5 -155.5t-20 -206.5zM1110 733q0 171 -43 287l-455 -741q34 -19 74 -29t88 -10q89 0 152.5 34t104 97.5t60 155t19.5 206.5z" unicode="Ø"/>
<glyph glyph-name="Ugrave" horiz-adv-x="1466" d="M1292 1462v-946q0 -114 -34.5 -212t-105 -170t-176.5 -113t-249 -41q-135 0 -238.5 38.5t-173 109.5t-105.5 170.5t-36 221.5v942h309v-919q0 -81 16 -138.5t47.5 -94t78.5 -53.5t110 -17q131 0 189.5 76t58.5 229v917h309zM706 1579q-34 28 -81.5 69.5t-93.5 85.5 t-84 84.5t-54 67.5v21h342q16 -34 37.5 -74.5t44.5 -81t47 -78.5t45 -67v-27h-203z" unicode="Ù"/>
<glyph glyph-name="Uacute" horiz-adv-x="1466" d="M1292 1462v-946q0 -114 -34.5 -212t-105 -170t-176.5 -113t-249 -41q-135 0 -238.5 38.5t-173 109.5t-105.5 170.5t-36 221.5v942h309v-919q0 -81 16 -138.5t47.5 -94t78.5 -53.5t110 -17q131 0 189.5 76t58.5 229v917h309zM570 1579v27q21 29 45 67t47.5 78.5t44.5 81 t37 74.5h342v-21q-11 -18 -32 -42.5t-48 -52.5t-58 -57.5t-62.5 -57.5t-60.5 -53t-52 -44h-203z" unicode="Ú"/>
<glyph glyph-name="Ucircumflex" horiz-adv-x="1466" d="M1292 1462v-946q0 -114 -34.5 -212t-105 -170t-176.5 -113t-249 -41q-135 0 -238.5 38.5t-173 109.5t-105.5 170.5t-36 221.5v942h309v-919q0 -81 16 -138.5t47.5 -94t78.5 -53.5t110 -17q131 0 189.5 76t58.5 229v917h309zM942 1579q-51 34 -106 77t-107 99 q-54 -56 -106 -99t-103 -77h-203v27q26 29 57.5 67t64 78.5t62.5 81t52 74.5h356q21 -34 51 -74.5t62.5 -81t65 -78.5t57.5 -67v-27h-203z" unicode="Û"/>
<glyph glyph-name="Udieresis" horiz-adv-x="1466" d="M1292 1462v-946q0 -114 -34.5 -212t-105 -170t-176.5 -113t-249 -41q-135 0 -238.5 38.5t-173 109.5t-105.5 170.5t-36 221.5v942h309v-919q0 -81 16 -138.5t47.5 -94t78.5 -53.5t110 -17q131 0 189.5 76t58.5 229v917h309zM393 1743q0 35 11 60.5t29.5 42t44 24.5 t54.5 8t54.5 -8t44.5 -24.5t30.5 -42t11.5 -60.5q0 -34 -11.5 -59t-30.5 -41.5t-44.5 -24.5t-54.5 -8t-54.5 8t-44 24.5t-29.5 41.5t-11 59zM796 1743q0 35 11 60.5t30 42t45 24.5t56 8q28 0 53.5 -8t45 -24.5t31 -42t11.5 -60.5q0 -34 -11.5 -59t-31 -41.5t-45 -24.5 t-53.5 -8q-60 0 -101 33t-41 100z" unicode="Ü"/>
<glyph glyph-name="Yacute" horiz-adv-x="1196" d="M598 860l264 602h334l-444 -893v-569h-308v559l-444 903h336zM422 1579v27q21 29 45 67t47.5 78.5t44.5 81t37 74.5h342v-21q-11 -18 -32 -42.5t-48 -52.5t-58 -57.5t-62.5 -57.5t-60.5 -53t-52 -44h-203z" unicode="Ý"/>
<glyph glyph-name="Thorn" horiz-adv-x="1225" d="M1133 770q0 -94 -25.5 -180t-84 -152t-154 -105.5t-236.5 -39.5h-139v-293h-310v1462h310v-229h161q124 0 214 -33t148.5 -93.5t87 -146t28.5 -190.5zM494 543h84q121 0 181 52.5t60 174.5q0 108 -53 159.5t-168 51.5h-104v-438z" unicode="Þ"/>
<glyph glyph-name="germandbls" horiz-adv-x="1395" d="M1188 1241q0 -64 -21.5 -112.5t-53 -86.5t-69 -67t-69 -53t-53 -45t-21.5 -43q0 -20 12.5 -37t39 -37t67.5 -45.5t98 -63.5q49 -31 87 -63.5t64.5 -71t40 -84.5t13.5 -106q0 -172 -117 -259t-344 -87q-98 0 -170.5 14.5t-132.5 48.5v242q24 -16 58.5 -31.5t72.5 -27.5 t78 -19.5t74 -7.5q80 0 124 30.5t44 92.5q0 27 -7 48t-27.5 42t-57.5 45.5t-97 58.5q-63 36 -105.5 68t-69 63.5t-37.5 66t-11 74.5q0 53 20.5 92t51.5 70t67.5 57t67.5 52.5t51.5 57.5t20.5 71q0 63 -50 102t-147 39q-108 0 -161.5 -48.5t-53.5 -152.5v-1128h-305v1139 q0 109 37 189.5t105.5 133.5t164.5 79t213 26q115 0 209 -21.5t160.5 -63t102.5 -102.5t36 -139z" unicode="ß"/>
<glyph glyph-name="agrave" horiz-adv-x="1176" d="M809 0l-59 152h-9q-33 -45 -66 -77.5t-72 -53.5t-87.5 -31t-112.5 -10q-68 0 -126 21.5t-100.5 65t-66.5 110t-24 157.5q0 178 114 262.5t341 93.5l178 6v84q0 69 -40 102t-112 33t-140.5 -21t-137.5 -56l-99 202q84 47 186 74t214 27q209 0 320.5 -98t111.5 -298v-745 h-213zM719 518l-101 -4q-61 -2 -103 -16t-67.5 -37.5t-37 -56t-11.5 -72.5q0 -70 34 -99.5t89 -29.5q42 0 78 14.5t62.5 43t41.5 70t15 95.5v92zM552 1241q-34 28 -81.5 69.5t-93.5 85.5t-84 84.5t-54 67.5v21h342q16 -34 37.5 -74.5t44.5 -81t47 -78.5t45 -67v-27h-203z " unicode="à"/>
<glyph glyph-name="aacute" horiz-adv-x="1176" d="M809 0l-59 152h-9q-33 -45 -66 -77.5t-72 -53.5t-87.5 -31t-112.5 -10q-68 0 -126 21.5t-100.5 65t-66.5 110t-24 157.5q0 178 114 262.5t341 93.5l178 6v84q0 69 -40 102t-112 33t-140.5 -21t-137.5 -56l-99 202q84 47 186 74t214 27q209 0 320.5 -98t111.5 -298v-745 h-213zM719 518l-101 -4q-61 -2 -103 -16t-67.5 -37.5t-37 -56t-11.5 -72.5q0 -70 34 -99.5t89 -29.5q42 0 78 14.5t62.5 43t41.5 70t15 95.5v92zM441 1241v27q21 29 45 67t47.5 78.5t44.5 81t37 74.5h342v-21q-11 -18 -32 -42.5t-48 -52.5t-58 -57.5t-62.5 -57.5t-60.5 -53 t-52 -44h-203z" unicode="á"/>
<glyph glyph-name="acircumflex" horiz-adv-x="1176" d="M809 0l-59 152h-9q-33 -45 -66 -77.5t-72 -53.5t-87.5 -31t-112.5 -10q-68 0 -126 21.5t-100.5 65t-66.5 110t-24 157.5q0 178 114 262.5t341 93.5l178 6v84q0 69 -40 102t-112 33t-140.5 -21t-137.5 -56l-99 202q84 47 186 74t214 27q209 0 320.5 -98t111.5 -298v-745 h-213zM719 518l-101 -4q-61 -2 -103 -16t-67.5 -37.5t-37 -56t-11.5 -72.5q0 -70 34 -99.5t89 -29.5q42 0 78 14.5t62.5 43t41.5 70t15 95.5v92zM801 1240q-51 34 -106 77t-107 99q-54 -56 -106 -99t-103 -77h-203v27q26 29 57.5 67t64 78.5t62.5 81t52 74.5h356 q21 -34 51 -74.5t62.5 -81t65 -78.5t57.5 -67v-27h-203z" unicode="â"/>
<glyph glyph-name="atilde" horiz-adv-x="1176" d="M809 0l-59 152h-9q-33 -45 -66 -77.5t-72 -53.5t-87.5 -31t-112.5 -10q-68 0 -126 21.5t-100.5 65t-66.5 110t-24 157.5q0 178 114 262.5t341 93.5l178 6v84q0 69 -40 102t-112 33t-140.5 -21t-137.5 -56l-99 202q84 47 186 74t214 27q209 0 320.5 -98t111.5 -298v-745 h-213zM719 518l-101 -4q-61 -2 -103 -16t-67.5 -37.5t-37 -56t-11.5 -72.5q0 -70 34 -99.5t89 -29.5q42 0 78 14.5t62.5 43t41.5 70t15 95.5v92zM425 1346q-31 0 -49.5 -26.5t-30.5 -80.5h-149q6 80 26 138t52.5 96t76.5 56.5t97 18.5q41 0 80 -16t77.5 -35.5t76 -36 t73.5 -16.5q31 0 49 26t31 80h149q-6 -79 -26.5 -137t-53.5 -96.5t-76.5 -57t-95.5 -18.5q-40 0 -80 16.5t-78 36t-75.5 36t-73.5 16.5z" unicode="ã"/>
<glyph glyph-name="adieresis" horiz-adv-x="1176" d="M809 0l-59 152h-9q-33 -45 -66 -77.5t-72 -53.5t-87.5 -31t-112.5 -10q-68 0 -126 21.5t-100.5 65t-66.5 110t-24 157.5q0 178 114 262.5t341 93.5l178 6v84q0 69 -40 102t-112 33t-140.5 -21t-137.5 -56l-99 202q84 47 186 74t214 27q209 0 320.5 -98t111.5 -298v-745 h-213zM719 518l-101 -4q-61 -2 -103 -16t-67.5 -37.5t-37 -56t-11.5 -72.5q0 -70 34 -99.5t89 -29.5q42 0 78 14.5t62.5 43t41.5 70t15 95.5v92zM254 1405q0 35 11 60.5t29.5 42t44 24.5t54.5 8t54.5 -8t44.5 -24.5t30.5 -42t11.5 -60.5q0 -34 -11.5 -59t-30.5 -41.5 t-44.5 -24.5t-54.5 -8t-54.5 8t-44 24.5t-29.5 41.5t-11 59zM657 1405q0 35 11 60.5t30 42t45 24.5t56 8q28 0 53.5 -8t45 -24.5t31 -42t11.5 -60.5q0 -34 -11.5 -59t-31 -41.5t-45 -24.5t-53.5 -8q-60 0 -101 33t-41 100z" unicode="ä"/>
<glyph glyph-name="aring" horiz-adv-x="1176" d="M809 0l-59 152h-9q-33 -45 -66 -77.5t-72 -53.5t-87.5 -31t-112.5 -10q-68 0 -126 21.5t-100.5 65t-66.5 110t-24 157.5q0 178 114 262.5t341 93.5l178 6v84q0 69 -40 102t-112 33t-140.5 -21t-137.5 -56l-99 202q84 47 186 74t214 27q209 0 320.5 -98t111.5 -298v-745 h-213zM719 518l-101 -4q-61 -2 -103 -16t-67.5 -37.5t-37 -56t-11.5 -72.5q0 -70 34 -99.5t89 -29.5q42 0 78 14.5t62.5 43t41.5 70t15 95.5v92zM842 1479q0 -56 -19.5 -100.5t-54 -75.5t-80.5 -47.5t-100 -16.5q-55 0 -101 16.5t-78.5 47t-50.5 75t-18 99.5t18 99 t50.5 74.5t78.5 47t101 16.5q53 0 99 -16.5t80.5 -47t54.5 -74t20 -97.5zM684 1477q0 45 -27 70.5t-69 25.5t-69 -25.5t-27 -70.5t24 -71t72 -26q42 0 69 26t27 71z" unicode="å"/>
<glyph glyph-name="ae" horiz-adv-x="1806" d="M1268 -20q-131 0 -238 50.5t-176 155.5q-43 -54 -85 -92.5t-91 -64t-110.5 -37.5t-143.5 -12q-68 0 -129.5 21.5t-108 65t-73.5 110t-27 157.5q0 178 114 262.5t341 93.5l178 6v84q0 69 -40 102t-112 33t-140.5 -21t-137.5 -56l-99 202q84 47 186 74t214 27 q214 0 323 -131q126 129 314 129q111 0 200.5 -33.5t151.5 -98.5t95.5 -159.5t33.5 -216.5v-148h-682q2 -64 20.5 -115.5t52 -87t81 -54.5t108.5 -19q94 0 181.5 21.5t175.5 66.5v-236q-40 -21 -80.5 -35.5t-85.5 -24.5t-97 -14.5t-114 -4.5zM719 518l-101 -4 q-61 -2 -103 -16t-67.5 -37.5t-37 -56t-11.5 -72.5q0 -70 34 -99.5t89 -29.5q42 0 78 14.5t62.5 43t41.5 70t15 95.5v92zM1229 922q-82 0 -135.5 -57t-61.5 -179h389q-1 51 -13 94t-35.5 74.5t-59.5 49.5t-84 18z" unicode="æ"/>
<glyph glyph-name="ccedilla" horiz-adv-x="1022" d="M625 -20q-120 0 -216.5 33t-165 102.5t-105 178t-36.5 259.5q0 167 37.5 279.5t106 180.5t165 97t214.5 29q86 0 171 -21t160 -59l-88 -232q-66 29 -127 47.5t-116 18.5q-111 0 -161 -84.5t-50 -253.5q0 -168 50 -248t157 -80q87 0 158 22.5t145 57.5v-254 q-37 -18 -72 -32t-70.5 -23t-74 -13.5t-82.5 -4.5zM778 -250q0 -57 -15.5 -102t-51.5 -76t-95.5 -47.5t-146.5 -16.5q-45 0 -81 6t-65 15v168q15 -4 33.5 -7.5t38 -6.5t38 -5t33.5 -2q29 0 50.5 13.5t21.5 48.5q0 37 -37 65.5t-129 42.5l78 154h193l-27 -61q31 -10 60 -27 t51.5 -40.5t36.5 -54t14 -67.5z" unicode="ç"/>
<glyph glyph-name="egrave" horiz-adv-x="1190" d="M612 922q-81 0 -134.5 -57t-61.5 -179h389q-1 51 -13 94t-36 74.5t-60 49.5t-84 18zM651 -20q-120 0 -221 35t-174 105.5t-113.5 178t-40.5 252.5q0 147 37 257t103.5 183.5t160 110.5t207.5 37q111 0 200.5 -33.5t152 -98.5t96 -159.5t33.5 -216.5v-148h-682 q2 -64 20.5 -115.5t52 -87t81 -54.5t108.5 -19q51 0 96.5 5.5t88.5 16.5t85 27.5t86 38.5v-236q-40 -21 -80.5 -35.5t-85.5 -24.5t-97 -14.5t-114 -4.5zM578 1241q-34 28 -81.5 69.5t-93.5 85.5t-84 84.5t-54 67.5v21h342q16 -34 37.5 -74.5t44.5 -81t47 -78.5t45 -67v-27 h-203z" unicode="è"/>
<glyph glyph-name="eacute" horiz-adv-x="1190" d="M612 922q-81 0 -134.5 -57t-61.5 -179h389q-1 51 -13 94t-36 74.5t-60 49.5t-84 18zM651 -20q-120 0 -221 35t-174 105.5t-113.5 178t-40.5 252.5q0 147 37 257t103.5 183.5t160 110.5t207.5 37q111 0 200.5 -33.5t152 -98.5t96 -159.5t33.5 -216.5v-148h-682 q2 -64 20.5 -115.5t52 -87t81 -54.5t108.5 -19q51 0 96.5 5.5t88.5 16.5t85 27.5t86 38.5v-236q-40 -21 -80.5 -35.5t-85.5 -24.5t-97 -14.5t-114 -4.5zM447 1241v27q21 29 45 67t47.5 78.5t44.5 81t37 74.5h342v-21q-11 -18 -32 -42.5t-48 -52.5t-58 -57.5t-62.5 -57.5 t-60.5 -53t-52 -44h-203z" unicode="é"/>
<glyph glyph-name="ecircumflex" horiz-adv-x="1190" d="M612 922q-81 0 -134.5 -57t-61.5 -179h389q-1 51 -13 94t-36 74.5t-60 49.5t-84 18zM651 -20q-120 0 -221 35t-174 105.5t-113.5 178t-40.5 252.5q0 147 37 257t103.5 183.5t160 110.5t207.5 37q111 0 200.5 -33.5t152 -98.5t96 -159.5t33.5 -216.5v-148h-682 q2 -64 20.5 -115.5t52 -87t81 -54.5t108.5 -19q51 0 96.5 5.5t88.5 16.5t85 27.5t86 38.5v-236q-40 -21 -80.5 -35.5t-85.5 -24.5t-97 -14.5t-114 -4.5zM819 1241q-51 34 -106 77t-107 99q-54 -56 -106 -99t-103 -77h-203v27q26 29 57.5 67t64 78.5t62.5 81t52 74.5h356 q21 -34 51 -74.5t62.5 -81t65 -78.5t57.5 -67v-27h-203z" unicode="ê"/>
<glyph glyph-name="edieresis" horiz-adv-x="1190" d="M612 922q-81 0 -134.5 -57t-61.5 -179h389q-1 51 -13 94t-36 74.5t-60 49.5t-84 18zM651 -20q-120 0 -221 35t-174 105.5t-113.5 178t-40.5 252.5q0 147 37 257t103.5 183.5t160 110.5t207.5 37q111 0 200.5 -33.5t152 -98.5t96 -159.5t33.5 -216.5v-148h-682 q2 -64 20.5 -115.5t52 -87t81 -54.5t108.5 -19q51 0 96.5 5.5t88.5 16.5t85 27.5t86 38.5v-236q-40 -21 -80.5 -35.5t-85.5 -24.5t-97 -14.5t-114 -4.5zM266 1405q0 35 11 60.5t29.5 42t44 24.5t54.5 8t54.5 -8t44.5 -24.5t30.5 -42t11.5 -60.5q0 -34 -11.5 -59t-30.5 -41.5 t-44.5 -24.5t-54.5 -8t-54.5 8t-44 24.5t-29.5 41.5t-11 59zM669 1405q0 35 11 60.5t30 42t45 24.5t56 8q28 0 53.5 -8t45 -24.5t31 -42t11.5 -60.5q0 -34 -11.5 -59t-31 -41.5t-45 -24.5t-53.5 -8q-60 0 -101 33t-41 100z" unicode="ë"/>
<glyph glyph-name="igrave" horiz-adv-x="625" d="M465 0h-305v1118h305v-1118zM269 1241q-34 28 -81.5 69.5t-93.5 85.5t-84 84.5t-54 67.5v21h342q16 -34 37.5 -74.5t44.5 -81t47 -78.5t45 -67v-27h-203z" unicode="ì"/>
<glyph glyph-name="iacute" horiz-adv-x="625" d="M465 0h-305v1118h305v-1118zM145 1241v27q21 29 45 67t47.5 78.5t44.5 81t37 74.5h342v-21q-11 -18 -32 -42.5t-48 -52.5t-58 -57.5t-62.5 -57.5t-60.5 -53t-52 -44h-203z" unicode="í"/>
<glyph glyph-name="icircumflex" horiz-adv-x="625" d="M465 0h-305v1118h305v-1118zM521 1241q-51 34 -106 77t-107 99q-54 -56 -106 -99t-103 -77h-203v27q26 29 57.5 67t64 78.5t62.5 81t52 74.5h356q21 -34 51 -74.5t62.5 -81t65 -78.5t57.5 -67v-27h-203z" unicode="î"/>
<glyph glyph-name="idieresis" horiz-adv-x="625" d="M465 0h-305v1118h305v-1118zM-32 1405q0 35 11 60.5t29.5 42t44 24.5t54.5 8t54.5 -8t44.5 -24.5t30.5 -42t11.5 -60.5q0 -34 -11.5 -59t-30.5 -41.5t-44.5 -24.5t-54.5 -8t-54.5 8t-44 24.5t-29.5 41.5t-11 59zM371 1405q0 35 11 60.5t30 42t45 24.5t56 8q28 0 53.5 -8 t45 -24.5t31 -42t11.5 -60.5q0 -34 -11.5 -59t-31 -41.5t-45 -24.5t-53.5 -8q-60 0 -101 33t-41 100z" unicode="ï"/>
<glyph glyph-name="eth" horiz-adv-x="1182" d="M457 1309q-34 21 -73 45t-81 47l96 170q73 -34 137 -68.5t121 -72.5l226 139l100 -154l-174 -106q72 -69 126 -147t89.5 -169t53.5 -195t18 -225q0 -142 -36 -252t-103 -186t-162 -115.5t-213 -39.5q-111 0 -204 34t-160.5 99t-105.5 159.5t-38 216.5t32.5 216t91 158.5 t140 98t178.5 33.5q96 0 164 -31.5t100 -80.5l21 2q-28 88 -78.5 165.5t-116.5 133.5l-231 -144l-101 156zM784 532q0 47 -11.5 90t-36 76t-62 52.5t-88.5 19.5q-108 0 -154.5 -70.5t-46.5 -212.5q0 -63 11.5 -115t36 -89t62.5 -57.5t91 -20.5q106 0 152 81.5t46 245.5z" unicode="ð"/>
<glyph glyph-name="ntilde" horiz-adv-x="1284" d="M1130 0h-305v653q0 121 -36.5 181.5t-116.5 60.5q-60 0 -100 -24t-63.5 -71t-33.5 -116t-10 -158v-526h-305v1118h233l41 -143h17q24 43 58.5 74t75.5 51t87 29.5t94 9.5q82 0 149 -23.5t115 -73.5t74 -127.5t26 -185.5v-729zM477 1346q-31 0 -49.5 -26.5t-30.5 -80.5 h-149q6 80 26 138t52.5 96t76.5 56.5t97 18.5q41 0 80 -16t77.5 -35.5t76 -36t73.5 -16.5q31 0 49 26t31 80h149q-6 -79 -26.5 -137t-53.5 -96.5t-76.5 -57t-95.5 -18.5q-40 0 -80 16.5t-78 36t-75.5 36t-73.5 16.5z" unicode="ñ"/>
<glyph glyph-name="ograve" horiz-adv-x="1227" d="M414 561q0 -167 47 -251.5t153 -84.5q105 0 152 85t47 251q0 167 -47 249.5t-154 82.5q-105 0 -151.5 -82.5t-46.5 -249.5zM1124 561q0 -140 -35.5 -248t-102 -182t-162 -112.5t-214.5 -38.5q-111 0 -204 38.5t-160.5 112.5t-105.5 182t-38 248q0 139 35.5 247t102 181.5 t161.5 111.5t215 38q111 0 204 -38t160.5 -111.5t105.5 -181.5t38 -247zM585 1241q-34 28 -81.5 69.5t-93.5 85.5t-84 84.5t-54 67.5v21h342q16 -34 37.5 -74.5t44.5 -81t47 -78.5t45 -67v-27h-203z" unicode="ò"/>
<glyph glyph-name="oacute" horiz-adv-x="1227" d="M414 561q0 -167 47 -251.5t153 -84.5q105 0 152 85t47 251q0 167 -47 249.5t-154 82.5q-105 0 -151.5 -82.5t-46.5 -249.5zM1124 561q0 -140 -35.5 -248t-102 -182t-162 -112.5t-214.5 -38.5q-111 0 -204 38.5t-160.5 112.5t-105.5 182t-38 248q0 139 35.5 247t102 181.5 t161.5 111.5t215 38q111 0 204 -38t160.5 -111.5t105.5 -181.5t38 -247zM434 1241v27q21 29 45 67t47.5 78.5t44.5 81t37 74.5h342v-21q-11 -18 -32 -42.5t-48 -52.5t-58 -57.5t-62.5 -57.5t-60.5 -53t-52 -44h-203z" unicode="ó"/>
<glyph glyph-name="ocircumflex" horiz-adv-x="1227" d="M414 561q0 -167 47 -251.5t153 -84.5q105 0 152 85t47 251q0 167 -47 249.5t-154 82.5q-105 0 -151.5 -82.5t-46.5 -249.5zM1124 561q0 -140 -35.5 -248t-102 -182t-162 -112.5t-214.5 -38.5q-111 0 -204 38.5t-160.5 112.5t-105.5 182t-38 248q0 139 35.5 247t102 181.5 t161.5 111.5t215 38q111 0 204 -38t160.5 -111.5t105.5 -181.5t38 -247zM821 1241q-51 34 -106 77t-107 99q-54 -56 -106 -99t-103 -77h-203v27q26 29 57.5 67t64 78.5t62.5 81t52 74.5h356q21 -34 51 -74.5t62.5 -81t65 -78.5t57.5 -67v-27h-203z" unicode="ô"/>
<glyph glyph-name="otilde" horiz-adv-x="1227" d="M414 561q0 -167 47 -251.5t153 -84.5q105 0 152 85t47 251q0 167 -47 249.5t-154 82.5q-105 0 -151.5 -82.5t-46.5 -249.5zM1124 561q0 -140 -35.5 -248t-102 -182t-162 -112.5t-214.5 -38.5q-111 0 -204 38.5t-160.5 112.5t-105.5 182t-38 248q0 139 35.5 247t102 181.5 t161.5 111.5t215 38q111 0 204 -38t160.5 -111.5t105.5 -181.5t38 -247zM444 1346q-31 0 -49.5 -26.5t-30.5 -80.5h-149q6 80 26 138t52.5 96t76.5 56.5t97 18.5q41 0 80 -16t77.5 -35.5t76 -36t73.5 -16.5q31 0 49 26t31 80h149q-6 -79 -26.5 -137t-53.5 -96.5t-76.5 -57 t-95.5 -18.5q-40 0 -80 16.5t-78 36t-75.5 36t-73.5 16.5z" unicode="õ"/>
<glyph glyph-name="odieresis" horiz-adv-x="1227" d="M414 561q0 -167 47 -251.5t153 -84.5q105 0 152 85t47 251q0 167 -47 249.5t-154 82.5q-105 0 -151.5 -82.5t-46.5 -249.5zM1124 561q0 -140 -35.5 -248t-102 -182t-162 -112.5t-214.5 -38.5q-111 0 -204 38.5t-160.5 112.5t-105.5 182t-38 248q0 139 35.5 247t102 181.5 t161.5 111.5t215 38q111 0 204 -38t160.5 -111.5t105.5 -181.5t38 -247zM266 1405q0 35 11 60.5t29.5 42t44 24.5t54.5 8t54.5 -8t44.5 -24.5t30.5 -42t11.5 -60.5q0 -34 -11.5 -59t-30.5 -41.5t-44.5 -24.5t-54.5 -8t-54.5 8t-44 24.5t-29.5 41.5t-11 59zM669 1405 q0 35 11 60.5t30 42t45 24.5t56 8q28 0 53.5 -8t45 -24.5t31 -42t11.5 -60.5q0 -34 -11.5 -59t-31 -41.5t-45 -24.5t-53.5 -8q-60 0 -101 33t-41 100z" unicode="ö"/>
<glyph glyph-name="divide" d="M88 612v219h952v-219h-952zM424 373q0 42 11 71t30 46.5t44.5 25.5t53.5 8t53 -8t44 -25.5t30.5 -46.5t11.5 -71q0 -40 -11.5 -69t-30.5 -47.5t-44 -27t-53 -8.5t-53.5 8.5t-44.5 27t-30 47.5t-11 69zM424 1071q0 42 11 71t30 47t44.5 26t53.5 8t53 -8t44 -26t30.5 -47 t11.5 -71q0 -40 -11.5 -68.5t-30.5 -47t-44 -27t-53 -8.5t-53.5 8.5t-44.5 27t-30 47t-11 68.5z" unicode="÷"/>
<glyph glyph-name="oslash" horiz-adv-x="1227" d="M1124 561q0 -140 -35.5 -248t-102 -182t-162 -112.5t-214.5 -38.5q-57 0 -109 10t-100 28l-57 -94l-162 90l68 111q-69 74 -108.5 183.5t-39.5 252.5q0 139 35.5 247t102 181.5t161.5 111.5t215 38q62 0 119.5 -13t108.5 -36l49 79l160 -96l-62 -98q63 -72 98 -176.5 t35 -237.5zM414 561q0 -86 12 -151l283 458q-40 25 -97 25q-105 0 -151.5 -82.5t-46.5 -249.5zM813 561q0 64 -6 113l-268 -434q17 -8 35.5 -11.5t39.5 -3.5q105 0 152 85t47 251z" unicode="ø"/>
<glyph glyph-name="ugrave" horiz-adv-x="1284" d="M891 0l-41 143h-16q-25 -43 -59.5 -73.5t-75.5 -50.5t-87 -29.5t-94 -9.5q-82 0 -149 23.5t-115 73.5t-74 127t-26 185v729h305v-653q0 -121 36.5 -181.5t116.5 -60.5q60 0 100 24t63.5 71t33.5 116t10 158v526h305v-1118h-233zM583 1241q-34 28 -81.5 69.5t-93.5 85.5 t-84 84.5t-54 67.5v21h342q16 -34 37.5 -74.5t44.5 -81t47 -78.5t45 -67v-27h-203z" unicode="ù"/>
<glyph glyph-name="uacute" horiz-adv-x="1284" d="M891 0l-41 143h-16q-25 -43 -59.5 -73.5t-75.5 -50.5t-87 -29.5t-94 -9.5q-82 0 -149 23.5t-115 73.5t-74 127t-26 185v729h305v-653q0 -121 36.5 -181.5t116.5 -60.5q60 0 100 24t63.5 71t33.5 116t10 158v526h305v-1118h-233zM461 1241v27q21 29 45 67t47.5 78.5 t44.5 81t37 74.5h342v-21q-11 -18 -32 -42.5t-48 -52.5t-58 -57.5t-62.5 -57.5t-60.5 -53t-52 -44h-203z" unicode="ú"/>
<glyph glyph-name="ucircumflex" horiz-adv-x="1284" d="M891 0l-41 143h-16q-25 -43 -59.5 -73.5t-75.5 -50.5t-87 -29.5t-94 -9.5q-82 0 -149 23.5t-115 73.5t-74 127t-26 185v729h305v-653q0 -121 36.5 -181.5t116.5 -60.5q60 0 100 24t63.5 71t33.5 116t10 158v526h305v-1118h-233zM842 1241q-51 34 -106 77t-107 99 q-54 -56 -106 -99t-103 -77h-203v27q26 29 57.5 67t64 78.5t62.5 81t52 74.5h356q21 -34 51 -74.5t62.5 -81t65 -78.5t57.5 -67v-27h-203z" unicode="û"/>
<glyph glyph-name="udieresis" horiz-adv-x="1284" d="M891 0l-41 143h-16q-25 -43 -59.5 -73.5t-75.5 -50.5t-87 -29.5t-94 -9.5q-82 0 -149 23.5t-115 73.5t-74 127t-26 185v729h305v-653q0 -121 36.5 -181.5t116.5 -60.5q60 0 100 24t63.5 71t33.5 116t10 158v526h305v-1118h-233zM295 1405q0 35 11 60.5t29.5 42t44 24.5 t54.5 8t54.5 -8t44.5 -24.5t30.5 -42t11.5 -60.5q0 -34 -11.5 -59t-30.5 -41.5t-44.5 -24.5t-54.5 -8t-54.5 8t-44 24.5t-29.5 41.5t-11 59zM698 1405q0 35 11 60.5t30 42t45 24.5t56 8q28 0 53.5 -8t45 -24.5t31 -42t11.5 -60.5q0 -34 -11.5 -59t-31 -41.5t-45 -24.5 t-53.5 -8q-60 0 -101 33t-41 100z" unicode="ü"/>
<glyph glyph-name="yacute" horiz-adv-x="1104" d="M0 1118h334l180 -629q16 -52 23.5 -111t9.5 -106h6q2 23 5.5 51t8.5 57t11.5 57.5t13.5 51.5l176 629h336l-442 -1261q-62 -177 -169 -263t-268 -86q-52 0 -90 5.5t-65 11.5v242q21 -5 53 -9t67 -4q48 0 82 13t58.5 36.5t42 56.5t30.5 74l19 56zM393 1241v27q21 29 45 67 t47.5 78.5t44.5 81t37 74.5h342v-21q-11 -18 -32 -42.5t-48 -52.5t-58 -57.5t-62.5 -57.5t-60.5 -53t-52 -44h-203z" unicode="ý"/>
<glyph glyph-name="thorn" horiz-adv-x="1245" d="M465 973q20 35 47.5 65t63.5 52.5t80.5 35.5t99.5 13q86 0 157 -37t122 -110t79.5 -181t28.5 -250q0 -143 -28 -251.5t-79 -182t-122 -110.5t-158 -37q-55 0 -100 10.5t-80.5 29.5t-62.5 44t-48 53h-14q3 -32 7 -62q3 -26 5 -52t2 -42v-453h-305v2048h305v-391 q0 -24 -2 -57t-5 -63q-4 -35 -7 -72h14zM653 895q-51 0 -86.5 -18.5t-57.5 -55.5t-32 -93.5t-12 -131.5v-33q0 -81 9.5 -144t31.5 -105.5t58.5 -64.5t90.5 -22q91 0 133.5 86.5t42.5 251.5t-42.5 247.5t-135.5 82.5z" unicode="þ"/>
<glyph glyph-name="dotlessi" horiz-adv-x="625" d="M465 0h-305v1118h305v-1118z" unicode="ı"/>
<glyph glyph-name="circumflex" horiz-adv-x="1182" d="M801 1241q-51 34 -106 77t-107 99q-54 -56 -106 -99t-103 -77h-203v27q26 29 57.5 67t64 78.5t62.5 81t52 74.5h356q21 -34 51 -74.5t62.5 -81t65 -78.5t57.5 -67v-27h-203z" unicode="ˆ"/>
<glyph glyph-name="ring" horiz-adv-x="1182" d="M842 1479q0 -56 -19.5 -100.5t-54 -75.5t-80.5 -47.5t-100 -16.5q-55 0 -101 16.5t-78.5 47t-50.5 75t-18 99.5t18 99t50.5 74.5t78.5 47t101 16.5q53 0 99 -16.5t80.5 -47t54.5 -74t20 -97.5zM684 1477q0 45 -27 70.5t-69 25.5t-69 -25.5t-27 -70.5t24 -71t72 -26 q42 0 69 26t27 71z" unicode="˚"/>
<glyph glyph-name="tilde" horiz-adv-x="1182" d="M426 1346q-31 0 -49.5 -26.5t-30.5 -80.5h-149q6 80 26 138t52.5 96t76.5 56.5t97 18.5q41 0 80 -16t77.5 -35.5t76 -36t73.5 -16.5q31 0 49 26t31 80h149q-6 -79 -26.5 -137t-53.5 -96.5t-76.5 -57t-95.5 -18.5q-40 0 -80 16.5t-78 36t-75.5 36t-73.5 16.5z" unicode="˜"/>
<glyph glyph-name="fraction" horiz-adv-x="266" d="M657 1462l-811 -1462h-239l811 1462h239z" unicode="⁄"/>
<glyph glyph-name="foursuperior" horiz-adv-x="776" d="M758 737h-125v-151h-238v151h-383v154l385 577h236v-563h125v-168zM395 905v164q0 42 1.5 88.5t4.5 95.5q-5 -13 -14.5 -34.5t-20.5 -44t-22 -43.5t-20 -35l-127 -191h198z"/>
</font>
</defs>
</svg>
